ID,y
1,78.0996683548778
2,94.15203890322468
3,78.0996683548778
4,78.0996683548778
5,112.16714237430844
8,94.15203890322468
10,112.16714237430844
11,94.15203890322468
12,116.78144918502537
14,94.15203890322468
15,116.78144918502537
16,103.3931449561924
17,94.15203890322468
19,94.15203890322468
20,103.3931449561924
21,94.15203890322468
22,116.78144918502537
23,94.15203890322468
26,94.15203890322468
28,94.15203890322468
29,94.15203890322468
33,94.15203890322468
35,94.15203890322468
41,94.15203890322468
42,94.15203890322468
43,116.78144918502537
45,103.3931449561924
46,103.3931449561924
51,94.15203890322468
53,78.0996683548778
55,112.16714237430844
56,94.15203890322468
57,103.3931449561924
58,94.15203890322468
59,103.3931449561924
63,112.16714237430844
64,94.15203890322468
65,103.3931449561924
69,94.15203890322468
71,94.15203890322468
72,103.3931449561924
73,94.15203890322468
76,103.3931449561924
77,103.3931449561924
78,116.78144918502537
82,94.15203890322468
83,103.3931449561924
84,94.15203890322468
85,103.3931449561924
87,112.16714237430844
88,94.15203890322468
89,112.16714237430844
91,94.15203890322468
93,94.15203890322468
94,103.3931449561924
95,94.15203890322468
96,112.16714237430844
97,94.15203890322468
98,112.16714237430844
99,94.15203890322468
101,103.3931449561924
103,112.16714237430844
104,94.15203890322468
105,112.16714237430844
110,94.15203890322468
111,112.16714237430844
113,112.16714237430844
114,94.15203890322468
115,113.64707284457688
117,112.16714237430844
120,94.15203890322468
121,112.16714237430844
122,94.15203890322468
123,112.16714237430844
126,112.16714237430844
132,112.16714237430844
135,103.3931449561924
137,103.3931449561924
138,94.15203890322468
140,94.15203890322468
142,113.64707284457688
144,112.16714237430844
148,94.15203890322468
149,112.16714237430844
155,94.15203890322468
156,112.16714237430844
157,94.15203890322468
162,112.16714237430844
163,94.15203890322468
167,94.15203890322468
172,116.78144918502537
179,112.16714237430844
180,94.15203890322468
181,112.16714237430844
182,94.15203890322468
183,112.16714237430844
185,112.16714237430844
187,112.16714237430844
188,94.15203890322468
189,94.15203890322468
191,94.15203890322468
192,113.64707284457688
193,94.15203890322468
194,112.16714237430844
195,94.15203890322468
196,112.16714237430844
198,94.15203890322468
199,112.16714237430844
201,103.3931449561924
204,94.15203890322468
205,103.3931449561924
206,94.15203890322468
210,94.15203890322468
211,103.3931449561924
216,112.16714237430844
219,116.78144918502537
220,94.15203890322468
221,112.16714237430844
226,112.16714237430844
227,94.15203890322468
228,112.16714237430844
230,112.16714237430844
231,94.15203890322468
235,116.78144918502537
236,94.15203890322468
238,112.16714237430844
242,103.3931449561924
243,94.15203890322468
244,78.0996683548778
245,103.62888026015688
247,112.16714237430844
248,94.15203890322468
249,94.15203890322468
250,112.16714237430844
251,94.15203890322468
253,116.78144918502537
254,94.15203890322468
256,94.15203890322468
257,94.15203890322468
258,112.16714237430844
259,94.15203890322468
262,78.0996683548778
266,94.15203890322468
267,112.16714237430844
272,103.3931449561924
273,112.16714237430844
275,94.15203890322468
276,112.16714237430844
279,94.15203890322468
280,103.3931449561924
283,94.15203890322468
285,112.16714237430844
288,112.16714237430844
289,94.15203890322468
290,103.3931449561924
291,94.15203890322468
292,112.16714237430844
293,112.16714237430844
296,94.15203890322468
297,112.16714237430844
298,116.78144918502537
299,94.15203890322468
304,94.15203890322468
305,103.62888026015688
306,94.15203890322468
307,112.16714237430844
311,110.50761666666666
313,112.16714237430844
314,94.15203890322468
316,94.15203890322468
324,94.15203890322468
327,94.15203890322468
329,94.15203890322468
330,112.16714237430844
337,103.3931449561924
338,94.15203890322468
339,103.3931449561924
340,94.15203890322468
343,94.15203890322468
345,116.78144918502537
346,94.15203890322468
347,112.16714237430844
349,113.64707284457688
350,94.15203890322468
352,112.16714237430844
353,94.15203890322468
354,78.0996683548778
357,94.15203890322468
358,112.16714237430844
362,112.16714237430844
364,114.3365642023994
365,103.3931449561924
366,94.15203890322468
367,112.16714237430844
368,94.15203890322468
370,78.0996683548778
373,94.15203890322468
377,94.15203890322468
378,112.16714237430844
382,103.3931449561924
384,112.16714237430844
390,94.15203890322468
392,112.16714237430844
393,112.16714237430844
395,94.15203890322468
396,103.3931449561924
399,78.0996683548778
406,112.16714237430844
408,112.16714237430844
409,94.15203890322468
410,78.0996683548778
412,112.16714237430844
413,94.15203890322468
419,94.15203890322468
420,112.16714237430844
421,94.15203890322468
430,94.15203890322468
434,94.15203890322468
436,94.15203890322468
437,94.15203890322468
438,94.15203890322468
439,112.16714237430844
440,94.15203890322468
443,112.16714237430844
446,94.15203890322468
448,94.15203890322468
452,94.15203890322468
453,103.3931449561924
457,103.3931449561924
458,94.15203890322468
459,113.64707284457688
460,103.3931449561924
462,103.3931449561924
464,103.3931449561924
465,116.78144918502537
467,112.95410385302853
471,112.16714237430844
472,78.0996683548778
473,94.15203890322468
475,94.15203890322468
480,94.15203890322468
488,112.16714237430844
490,112.16714237430844
491,103.3931449561924
492,78.0996683548778
493,94.15203890322468
497,94.15203890322468
498,112.16714237430844
499,94.15203890322468
500,103.3931449561924
501,94.15203890322468
502,112.16714237430844
506,78.0996683548778
510,112.16714237430844
511,94.15203890322468
512,94.15203890322468
516,94.15203890322468
518,94.15203890322468
519,112.16714237430844
521,94.15203890322468
522,112.16714237430844
526,112.16714237430844
529,94.15203890322468
532,112.16714237430844
533,94.15203890322468
536,112.16714237430844
537,94.15203890322468
539,94.15203890322468
540,103.3931449561924
541,94.15203890322468
543,94.15203890322468
546,112.16714237430844
547,94.15203890322468
548,78.0996683548778
551,94.15203890322468
552,103.3931449561924
556,103.3931449561924
557,94.15203890322468
558,112.16714237430844
559,94.15203890322468
560,103.3931449561924
562,103.3931449561924
566,94.15203890322468
570,112.16714237430844
571,94.15203890322468
572,103.3931449561924
573,94.15203890322468
575,116.78144918502537
576,112.16714237430844
577,94.15203890322468
579,94.15203890322468
580,112.16714237430844
581,112.16714237430844
589,112.16714237430844
591,103.3931449561924
593,94.15203890322468
594,103.3931449561924
595,94.15203890322468
598,94.15203890322468
602,112.16714237430844
604,112.16714237430844
606,113.64707284457688
608,94.15203890322468
609,103.3931449561924
610,94.15203890322468
616,112.16714237430844
617,94.15203890322468
618,103.3931449561924
620,103.3931449561924
622,112.16714237430844
623,94.15203890322468
624,113.64707284457688
626,112.16714237430844
628,112.16714237430844
629,94.15203890322468
630,112.16714237430844
637,94.15203890322468
638,103.3931449561924
643,94.15203890322468
645,94.15203890322468
646,112.95410385302853
648,94.15203890322468
652,94.15203890322468
653,94.15203890322468
654,112.16714237430844
656,112.16714237430844
657,94.15203890322468
659,94.15203890322468
660,103.3931449561924
663,94.15203890322468
664,112.16714237430844
666,103.3931449561924
668,112.16714237430844
669,94.15203890322468
671,94.15203890322468
675,94.15203890322468
677,94.15203890322468
678,103.62888026015688
679,103.3931449561924
682,94.15203890322468
685,103.3931449561924
687,94.15203890322468
688,94.15203890322468
693,112.16714237430844
696,94.15203890322468
698,94.15203890322468
701,94.15203890322468
704,103.3931449561924
705,116.78144918502537
709,112.16714237430844
710,94.15203890322468
711,103.3931449561924
712,94.15203890322468
714,112.16714237430844
715,94.15203890322468
716,112.16714237430844
717,94.15203890322468
720,116.78144918502537
721,94.15203890322468
724,103.3931449561924
725,94.15203890322468
726,112.16714237430844
728,112.16714237430844
731,94.15203890322468
734,103.3931449561924
738,94.15203890322468
745,112.16714237430844
746,94.15203890322468
751,78.0996683548778
754,94.15203890322468
756,94.15203890322468
758,94.15203890322468
759,113.64707284457688
761,116.78144918502537
766,94.15203890322468
767,112.16714237430844
768,94.15203890322468
769,112.16714237430844
770,94.15203890322468
771,78.0996683548778
772,103.3931449561924
773,94.15203890322468
774,112.16714237430844
776,112.16714237430844
777,94.15203890322468
780,116.78144918502537
782,103.3931449561924
787,103.3931449561924
788,94.15203890322468
792,94.15203890322468
793,112.16714237430844
798,94.15203890322468
800,94.15203890322468
806,112.16714237430844
809,112.16714237430844
811,112.16714237430844
812,94.15203890322468
814,116.78144918502537
816,103.3931449561924
817,94.15203890322468
818,110.50761666666666
820,112.16714237430844
823,94.15203890322468
829,94.15203890322468
830,113.64707284457688
831,94.15203890322468
834,112.16714237430844
839,94.15203890322468
841,78.0996683548778
844,103.3931449561924
845,94.15203890322468
848,94.15203890322468
850,94.15203890322468
851,103.3931449561924
852,94.15203890322468
854,94.15203890322468
855,94.15203890322468
856,103.3931449561924
859,103.3931449561924
861,112.16714237430844
864,94.15203890322468
865,112.16714237430844
866,94.15203890322468
867,94.15203890322468
869,94.15203890322468
871,94.15203890322468
872,112.16714237430844
882,103.3931449561924
883,94.15203890322468
885,94.15203890322468
888,94.15203890322468
893,112.16714237430844
901,103.62888026015688
903,103.3931449561924
904,94.15203890322468
905,103.3931449561924
910,94.15203890322468
911,112.16714237430844
914,112.16714237430844
918,112.16714237430844
921,94.15203890322468
928,94.15203890322468
929,103.3931449561924
932,94.15203890322468
933,103.3931449561924
934,94.15203890322468
935,112.16714237430844
937,78.0996683548778
939,94.15203890322468
940,103.3931449561924
941,94.15203890322468
942,103.3931449561924
943,94.15203890322468
944,103.3931449561924
947,112.16714237430844
949,112.16714237430844
951,112.16714237430844
952,94.15203890322468
953,103.3931449561924
954,78.0996683548778
957,112.16714237430844
959,94.15203890322468
960,112.95410385302853
963,116.78144918502537
965,112.16714237430844
967,103.3931449561924
971,94.15203890322468
972,78.0996683548778
973,94.15203890322468
974,112.16714237430844
975,94.15203890322468
978,114.3365642023994
980,112.16714237430844
981,94.15203890322468
984,112.16714237430844
986,94.15203890322468
988,94.15203890322468
989,112.16714237430844
990,103.3931449561924
992,103.62888026015688
996,94.15203890322468
999,112.16714237430844
1000,94.15203890322468
1001,112.16714237430844
1002,94.15203890322468
1003,112.16714237430844
1004,94.15203890322468
1008,112.16714237430844
1009,94.15203890322468
1010,103.3931449561924
1012,112.95410385302853
1013,94.15203890322468
1014,112.16714237430844
1015,94.15203890322468
1016,116.78144918502537
1019,94.15203890322468
1020,112.16714237430844
1021,94.15203890322468
1022,103.3931449561924
1024,94.15203890322468
1025,78.0996683548778
1027,94.15203890322468
1028,103.3931449561924
1029,94.15203890322468
1030,94.15203890322468
1033,112.16714237430844
1036,94.15203890322468
1037,112.16714237430844
1038,94.15203890322468
1042,94.15203890322468
1043,103.3931449561924
1044,94.15203890322468
1045,112.16714237430844
1047,113.64707284457688
1050,94.15203890322468
1051,112.16714237430844
1054,94.15203890322468
1056,94.15203890322468
1057,94.15203890322468
1059,94.15203890322468
1062,94.15203890322468
1063,103.3931449561924
1064,94.15203890322468
1066,94.15203890322468
1070,103.3931449561924
1076,112.16714237430844
1077,94.15203890322468
1078,112.16714237430844
1080,112.16714237430844
1082,113.64707284457688
1083,94.15203890322468
1089,113.64707284457688
1091,94.15203890322468
1093,94.15203890322468
1097,94.15203890322468
1099,94.15203890322468
1101,94.15203890322468
1103,94.15203890322468
1104,112.16714237430844
1106,112.16714237430844
1109,94.15203890322468
1110,112.16714237430844
1111,94.15203890322468
1112,112.16714237430844
1114,94.15203890322468
1116,94.15203890322468
1117,112.16714237430844
1120,94.15203890322468
1124,112.16714237430844
1125,94.15203890322468
1126,112.16714237430844
1134,112.16714237430844
1137,94.15203890322468
1138,112.16714237430844
1144,112.16714237430844
1145,94.15203890322468
1146,94.15203890322468
1148,94.15203890322468
1150,94.15203890322468
1152,103.3931449561924
1153,94.15203890322468
1154,103.3931449561924
1155,94.15203890322468
1157,94.15203890322468
1162,94.15203890322468
1165,112.16714237430844
1166,94.15203890322468
1167,103.3931449561924
1168,94.15203890322468
1169,103.3931449561924
1171,116.78144918502537
1172,94.15203890322468
1173,103.3931449561924
1174,94.15203890322468
1176,94.15203890322468
1177,103.3931449561924
1178,94.15203890322468
1182,112.16714237430844
1186,94.15203890322468
1187,112.16714237430844
1188,94.15203890322468
1189,116.78144918502537
1191,103.3931449561924
1192,94.15203890322468
1197,112.16714237430844
1198,94.15203890322468
1200,78.0996683548778
1201,94.15203890322468
1203,94.15203890322468
1209,116.78144918502537
1214,103.3931449561924
1218,103.62888026015688
1222,94.15203890322468
1226,94.15203890322468
1228,94.15203890322468
1230,94.15203890322468
1232,78.0996683548778
1233,94.15203890322468
1236,113.64707284457688
1238,94.15203890322468
1241,112.16714237430844
1244,103.3931449561924
1246,94.15203890322468
1247,112.16714237430844
1250,112.16714237430844
1251,94.15203890322468
1254,112.16714237430844
1255,94.15203890322468
1256,103.62888026015688
1257,94.15203890322468
1258,94.15203890322468
1259,112.16714237430844
1260,94.15203890322468
1263,112.16714237430844
1267,78.0996683548778
1268,112.16714237430844
1271,94.15203890322468
1272,112.16714237430844
1274,103.3931449561924
1275,94.15203890322468
1276,112.16714237430844
1277,94.15203890322468
1279,94.15203890322468
1281,94.15203890322468
1282,94.15203890322468
1283,112.16714237430844
1285,112.16714237430844
1286,94.15203890322468
1289,112.16714237430844
1296,112.16714237430844
1299,94.15203890322468
1301,94.15203890322468
1306,94.15203890322468
1307,94.15203890322468
1308,94.15203890322468
1313,112.16714237430844
1314,94.15203890322468
1315,112.16714237430844
1316,94.15203890322468
1317,112.16714237430844
1319,94.15203890322468
1323,94.15203890322468
1324,103.3931449561924
1325,94.15203890322468
1328,103.3931449561924
1329,94.15203890322468
1330,112.16714237430844
1331,94.15203890322468
1332,103.3931449561924
1337,94.15203890322468
1338,112.16714237430844
1339,94.15203890322468
1340,112.16714237430844
1343,112.16714237430844
1347,103.3931449561924
1348,94.15203890322468
1349,103.3931449561924
1352,94.15203890322468
1354,94.15203890322468
1359,112.16714237430844
1360,94.15203890322468
1363,112.16714237430844
1364,94.15203890322468
1365,103.3931449561924
1366,94.15203890322468
1372,94.15203890322468
1375,103.3931449561924
1376,94.15203890322468
1378,94.15203890322468
1379,112.16714237430844
1380,94.15203890322468
1381,103.3931449561924
1384,113.64707284457688
1387,94.15203890322468
1388,112.16714237430844
1392,78.0996683548778
1394,103.3931449561924
1395,94.15203890322468
1396,112.16714237430844
1398,94.15203890322468
1399,112.16714237430844
1400,94.15203890322468
1401,94.15203890322468
1403,94.15203890322468
1404,113.64707284457688
1406,112.16714237430844
1407,94.15203890322468
1408,112.16714237430844
1410,78.0996683548778
1412,112.16714237430844
1413,94.15203890322468
1415,94.15203890322468
1420,112.16714237430844
1422,103.62888026015688
1423,111.12371406487725
1424,112.16714237430844
1425,94.15203890322468
1426,78.0996683548778
1427,94.15203890322468
1429,94.15203890322468
1430,112.16714237430844
1431,94.15203890322468
1432,103.3931449561924
1434,112.16714237430844
1437,94.15203890322468
1438,103.3931449561924
1440,112.16714237430844
1441,112.16714237430844
1442,94.15203890322468
1444,112.16714237430844
1445,94.15203890322468
1446,103.3931449561924
1448,94.15203890322468
1453,94.15203890322468
1454,112.16714237430844
1455,94.15203890322468
1456,113.64707284457688
1458,112.16714237430844
1459,94.15203890322468
1461,94.15203890322468
1465,94.15203890322468
1466,112.16714237430844
1469,94.15203890322468
1472,94.15203890322468
1474,94.15203890322468
1477,112.16714237430844
1479,112.16714237430844
1482,94.15203890322468
1483,78.0996683548778
1487,94.15203890322468
1488,112.16714237430844
1490,112.16714237430844
1492,113.64707284457688
1494,116.78144918502537
1496,103.3931449561924
1497,94.15203890322468
1499,94.15203890322468
1502,94.15203890322468
1507,113.64707284457688
1508,94.15203890322468
1509,112.16714237430844
1511,94.15203890322468
1512,112.16714237430844
1513,116.78144918502537
1514,103.3931449561924
1518,112.16714237430844
1519,94.15203890322468
1522,112.16714237430844
1524,78.0996683548778
1527,94.15203890322468
1529,94.15203890322468
1532,103.3931449561924
1536,112.16714237430844
1537,116.78144918502537
1539,103.3931449561924
1542,112.16714237430844
1543,94.15203890322468
1544,103.3931449561924
1545,78.0996683548778
1550,94.15203890322468
1551,112.16714237430844
1554,103.3931449561924
1556,103.3931449561924
1559,94.15203890322468
1560,78.0996683548778
1562,94.15203890322468
1566,94.15203890322468
1567,112.16714237430844
1569,103.3931449561924
1570,112.16714237430844
1571,112.16714237430844
1574,94.15203890322468
1578,103.3931449561924
1580,94.15203890322468
1583,112.16714237430844
1584,94.15203890322468
1585,112.16714237430844
1586,94.15203890322468
1587,112.16714237430844
1588,94.15203890322468
1590,116.78144918502537
1592,103.3931449561924
1596,113.64707284457688
1598,112.16714237430844
1599,94.15203890322468
1604,114.3365642023994
1606,103.3931449561924
1607,94.15203890322468
1608,103.3931449561924
1609,116.78144918502537
1611,94.15203890322468
1613,94.15203890322468
1616,94.15203890322468
1619,112.16714237430844
1620,94.15203890322468
1621,112.16714237430844
1622,94.15203890322468
1625,103.62888026015688
1627,116.78144918502537
1629,112.16714237430844
1634,94.15203890322468
1636,94.15203890322468
1638,103.3931449561924
1639,94.15203890322468
1641,94.15203890322468
1643,94.15203890322468
1644,103.3931449561924
1645,116.78144918502537
1646,94.15203890322468
1647,103.3931449561924
1648,94.15203890322468
1652,94.15203890322468
1653,112.16714237430844
1656,94.15203890322468
1658,94.15203890322468
1659,112.16714237430844
1661,94.15203890322468
1663,94.15203890322468
1664,112.16714237430844
1665,94.15203890322468
1666,103.3931449561924
1667,103.3931449561924
1668,78.0996683548778
1669,103.3931449561924
1670,94.15203890322468
1672,112.16714237430844
1674,112.16714237430844
1677,112.16714237430844
1678,94.15203890322468
1679,112.16714237430844
1680,94.15203890322468
1683,103.3931449561924
1686,103.3931449561924
1687,103.62888026015688
1689,112.16714237430844
1690,94.15203890322468
1691,116.78144918502537
1692,112.16714237430844
1693,94.15203890322468
1695,94.15203890322468
1696,94.15203890322468
1697,112.16714237430844
1700,103.3931449561924
1701,94.15203890322468
1702,112.16714237430844
1703,94.15203890322468
1704,112.16714237430844
1706,94.15203890322468
1707,112.16714237430844
1708,94.15203890322468
1710,94.15203890322468
1711,103.3931449561924
1713,103.3931449561924
1717,103.3931449561924
1719,103.3931449561924
1720,94.15203890322468
1722,94.15203890322468
1725,103.3931449561924
1726,94.15203890322468
1727,103.3931449561924
1729,112.16714237430844
1730,94.15203890322468
1731,112.16714237430844
1733,103.3931449561924
1734,94.15203890322468
1735,103.62888026015688
1738,94.15203890322468
1742,94.15203890322468
1745,112.16714237430844
1747,94.15203890322468
1749,94.15203890322468
1751,94.15203890322468
1752,78.0996683548778
1753,103.3931449561924
1754,94.15203890322468
1755,94.15203890322468
1756,103.3931449561924
1758,112.16714237430844
1759,94.15203890322468
1760,103.3931449561924
1761,112.16714237430844
1762,94.15203890322468
1763,112.16714237430844
1764,94.15203890322468
1766,94.15203890322468
1768,94.15203890322468
1769,78.0996683548778
1771,112.16714237430844
1772,94.15203890322468
1773,103.3931449561924
1774,94.15203890322468
1775,112.16714237430844
1777,112.16714237430844
1779,94.15203890322468
1780,103.3931449561924
1787,94.15203890322468
1788,94.15203890322468
1790,94.15203890322468
1796,112.16714237430844
1801,94.15203890322468
1803,94.15203890322468
1807,112.16714237430844
1809,112.16714237430844
1812,94.15203890322468
1813,112.16714237430844
1814,94.15203890322468
1815,112.16714237430844
1816,94.15203890322468
1818,94.15203890322468
1820,94.15203890322468
1821,113.64707284457688
1822,94.15203890322468
1825,94.15203890322468
1826,103.3931449561924
1828,94.15203890322468
1831,103.3931449561924
1836,113.64707284457688
1837,94.15203890322468
1841,94.15203890322468
1844,103.3931449561924
1848,94.15203890322468
1851,103.3931449561924
1852,94.15203890322468
1853,94.15203890322468
1854,112.16714237430844
1856,94.15203890322468
1859,112.16714237430844
1860,94.15203890322468
1861,78.0996683548778
1863,103.3931449561924
1865,94.15203890322468
1866,103.3931449561924
1867,94.15203890322468
1868,94.15203890322468
1872,94.15203890322468
1879,94.15203890322468
1880,103.3931449561924
1882,94.15203890322468
1885,103.3931449561924
1887,103.3931449561924
1888,94.15203890322468
1890,112.16714237430844
1894,94.15203890322468
1895,103.3931449561924
1896,94.15203890322468
1897,112.16714237430844
1900,112.16714237430844
1901,94.15203890322468
1902,112.16714237430844
1905,94.15203890322468
1906,112.16714237430844
1912,103.3931449561924
1915,94.15203890322468
1916,103.3931449561924
1917,94.15203890322468
1918,103.3931449561924
1920,78.0996683548778
1923,94.15203890322468
1924,103.3931449561924
1925,94.15203890322468
1930,116.78144918502537
1932,112.16714237430844
1933,94.15203890322468
1934,112.16714237430844
1935,94.15203890322468
1940,78.0996683548778
1941,94.15203890322468
1942,112.16714237430844
1943,94.15203890322468
1944,94.15203890322468
1945,113.64707284457688
1948,116.78144918502537
1949,94.15203890322468
1952,94.15203890322468
1954,94.15203890322468
1955,112.16714237430844
1958,94.15203890322468
1959,78.0996683548778
1960,112.16714237430844
1963,94.15203890322468
1965,94.15203890322468
1968,103.3931449561924
1969,94.15203890322468
1971,94.15203890322468
1972,112.16714237430844
1973,94.15203890322468
1975,94.15203890322468
1977,94.15203890322468
1978,94.15203890322468
1979,112.16714237430844
1981,94.15203890322468
1982,112.16714237430844
1987,112.16714237430844
1988,94.15203890322468
1993,94.15203890322468
1997,94.15203890322468
1999,94.15203890322468
2001,94.15203890322468
2002,113.64707284457688
2003,94.15203890322468
2004,78.0996683548778
2006,112.16714237430844
2007,94.15203890322468
2009,103.3931449561924
2010,94.15203890322468
2013,94.15203890322468
2018,78.0996683548778
2022,103.3931449561924
2024,112.16714237430844
2025,94.15203890322468
2026,103.3931449561924
2030,103.3931449561924
2031,94.15203890322468
2032,103.3931449561924
2033,94.15203890322468
2035,94.15203890322468
2036,112.16714237430844
2037,94.15203890322468
2040,94.15203890322468
2043,112.16714237430844
2044,103.3931449561924
2046,103.3931449561924
2054,112.16714237430844
2055,94.15203890322468
2056,103.3931449561924
2059,94.15203890322468
2060,94.15203890322468
2062,94.15203890322468
2063,112.16714237430844
2066,94.15203890322468
2067,103.62888026015688
2072,94.15203890322468
2073,112.16714237430844
2074,94.15203890322468
2075,112.16714237430844
2076,94.15203890322468
2080,94.15203890322468
2082,94.15203890322468
2085,112.16714237430844
2087,112.16714237430844
2091,112.16714237430844
2092,94.15203890322468
2093,103.3931449561924
2098,94.15203890322468
2101,112.16714237430844
2102,94.15203890322468
2103,78.0996683548778
2105,103.3931449561924
2106,94.15203890322468
2107,112.16714237430844
2110,94.15203890322468
2114,94.15203890322468
2115,112.16714237430844
2117,78.0996683548778
2118,94.15203890322468
2119,103.3931449561924
2120,94.15203890322468
2122,94.15203890322468
2123,112.16714237430844
2126,94.15203890322468
2127,103.3931449561924
2128,94.15203890322468
2129,112.16714237430844
2132,94.15203890322468
2135,103.3931449561924
2138,94.15203890322468
2139,116.78144918502537
2141,113.64707284457688
2142,94.15203890322468
2146,94.15203890322468
2151,112.16714237430844
2157,103.3931449561924
2159,112.16714237430844
2162,94.15203890322468
2164,116.78144918502537
2167,94.15203890322468
2168,112.16714237430844
2171,94.15203890322468
2173,94.15203890322468
2174,103.3931449561924
2175,94.15203890322468
2178,94.15203890322468
2180,94.15203890322468
2185,112.16714237430844
2189,94.15203890322468
2190,103.62888026015688
2192,103.3931449561924
2194,113.64707284457688
2200,113.64707284457688
2201,94.15203890322468
2203,112.16714237430844
2204,94.15203890322468
2205,112.16714237430844
2209,113.64707284457688
2213,103.3931449561924
2214,94.15203890322468
2215,112.16714237430844
2216,94.15203890322468
2218,94.15203890322468
2219,103.3931449561924
2220,94.15203890322468
2222,94.15203890322468
2223,112.16714237430844
2225,112.16714237430844
2226,94.15203890322468
2230,94.15203890322468
2233,103.62888026015688
2234,112.16714237430844
2235,94.15203890322468
2236,78.0996683548778
2237,94.15203890322468
2240,113.64707284457688
2241,94.15203890322468
2248,103.3931449561924
2249,94.15203890322468
2250,112.16714237430844
2252,112.16714237430844
2253,94.15203890322468
2254,112.16714237430844
2256,78.0996683548778
2258,94.15203890322468
2259,112.16714237430844
2262,94.15203890322468
2265,94.15203890322468
2266,103.3931449561924
2269,94.15203890322468
2271,94.15203890322468
2273,94.15203890322468
2274,112.16714237430844
2275,94.15203890322468
2277,94.15203890322468
2279,94.15203890322468
2280,78.0996683548778
2282,94.15203890322468
2283,103.3931449561924
2288,94.15203890322468
2289,113.64707284457688
2291,94.15203890322468
2292,116.78144918502537
2297,94.15203890322468
2298,103.3931449561924
2299,94.15203890322468
2300,112.16714237430844
2301,94.15203890322468
2304,94.15203890322468
2305,103.3931449561924
2306,94.15203890322468
2308,94.15203890322468
2309,112.16714237430844
2311,94.15203890322468
2312,103.3931449561924
2316,103.3931449561924
2321,103.3931449561924
2322,112.16714237430844
2325,103.3931449561924
2326,94.15203890322468
2329,116.78144918502537
2330,94.15203890322468
2331,103.3931449561924
2332,103.62888026015688
2333,94.15203890322468
2334,103.3931449561924
2335,103.62888026015688
2337,112.16714237430844
2338,94.15203890322468
2340,103.62888026015688
2342,94.15203890322468
2345,94.15203890322468
2349,94.15203890322468
2351,78.0996683548778
2352,94.15203890322468
2354,112.16714237430844
2355,112.95410385302853
2357,112.16714237430844
2358,94.15203890322468
2360,94.15203890322468
2361,112.16714237430844
2364,94.15203890322468
2366,94.15203890322468
2369,103.3931449561924
2370,94.15203890322468
2371,103.62888026015688
2373,114.3365642023994
2374,94.15203890322468
2376,112.16714237430844
2378,113.64707284457688
2382,94.15203890322468
2383,94.15203890322468
2386,103.3931449561924
2387,94.15203890322468
2389,94.15203890322468
2390,113.64707284457688
2392,94.15203890322468
2398,103.62888026015688
2399,94.15203890322468
2400,94.15203890322468
2401,112.16714237430844
2402,94.15203890322468
2404,94.15203890322468
2407,113.64707284457688
2408,112.16714237430844
2409,112.16714237430844
2412,78.0996683548778
2413,94.15203890322468
2415,94.15203890322468
2420,113.64707284457688
2422,94.15203890322468
2423,103.3931449561924
2426,94.15203890322468
2432,94.15203890322468
2434,94.15203890322468
2435,94.15203890322468
2436,112.16714237430844
2438,113.64707284457688
2440,112.16714237430844
2443,94.15203890322468
2444,94.15203890322468
2447,103.3931449561924
2450,94.15203890322468
2454,94.15203890322468
2455,112.16714237430844
2459,94.15203890322468
2460,112.16714237430844
2463,94.15203890322468
2465,94.15203890322468
2468,78.0996683548778
2469,94.15203890322468
2474,94.15203890322468
2478,94.15203890322468
2480,94.15203890322468
2481,113.64707284457688
2489,94.15203890322468
2490,103.3931449561924
2492,94.15203890322468
2496,94.15203890322468
2497,112.16714237430844
2500,94.15203890322468
2505,94.15203890322468
2507,94.15203890322468
2508,112.16714237430844
2509,94.15203890322468
2510,78.0996683548778
2513,94.15203890322468
2515,94.15203890322468
2518,94.15203890322468
2519,113.64707284457688
2520,94.15203890322468
2521,112.16714237430844
2523,112.16714237430844
2525,94.15203890322468
2529,112.16714237430844
2530,94.15203890322468
2533,113.64707284457688
2535,94.15203890322468
2538,103.3931449561924
2544,113.64707284457688
2553,112.16714237430844
2556,94.15203890322468
2558,94.15203890322468
2559,114.3365642023994
2560,94.15203890322468
2561,112.16714237430844
2562,94.15203890322468
2563,112.16714237430844
2564,94.15203890322468
2565,103.62888026015688
2567,103.3931449561924
2572,94.15203890322468
2575,94.15203890322468
2576,112.16714237430844
2577,94.15203890322468
2578,94.15203890322468
2579,112.16714237430844
2580,94.15203890322468
2582,112.16714237430844
2583,94.15203890322468
2587,94.15203890322468
2589,112.16714237430844
2590,94.15203890322468
2591,112.16714237430844
2594,94.15203890322468
2597,94.15203890322468
2598,103.3931449561924
2599,94.15203890322468
2600,103.3931449561924
2602,113.64707284457688
2603,94.15203890322468
2604,103.3931449561924
2606,112.16714237430844
2607,78.0996683548778
2608,94.15203890322468
2613,112.16714237430844
2614,94.15203890322468
2615,112.16714237430844
2617,112.16714237430844
2620,94.15203890322468
2623,112.16714237430844
2624,94.15203890322468
2627,112.16714237430844
2629,78.0996683548778
2630,94.15203890322468
2632,94.15203890322468
2636,94.15203890322468
2639,94.15203890322468
2640,103.3931449561924
2642,112.16714237430844
2644,103.3931449561924
2646,112.16714237430844
2647,94.15203890322468
2649,94.15203890322468
2650,110.50761666666666
2652,103.3931449561924
2653,103.3931449561924
2655,110.50761666666666
2657,103.62888026015688
2659,112.16714237430844
2662,94.15203890322468
2663,113.64707284457688
2664,94.15203890322468
2665,103.3931449561924
2670,94.15203890322468
2671,103.3931449561924
2672,94.15203890322468
2675,103.3931449561924
2677,112.16714237430844
2679,112.16714237430844
2683,112.16714237430844
2684,94.15203890322468
2685,94.15203890322468
2688,103.3931449561924
2689,94.15203890322468
2690,103.3931449561924
2693,94.15203890322468
2694,112.16714237430844
2697,103.62888026015688
2699,94.15203890322468
2703,94.15203890322468
2705,103.3931449561924
2709,78.0996683548778
2710,94.15203890322468
2711,112.16714237430844
2712,94.15203890322468
2713,94.15203890322468
2714,112.16714237430844
2715,94.15203890322468
2717,94.15203890322468
2718,113.64707284457688
2720,112.16714237430844
2721,94.15203890322468
2726,94.15203890322468
2728,94.15203890322468
2731,103.3931449561924
2732,112.16714237430844
2734,94.15203890322468
2736,103.3931449561924
2737,94.15203890322468
2738,103.3931449561924
2739,112.16714237430844
2746,94.15203890322468
2749,103.3931449561924
2751,116.78144918502537
2752,103.3931449561924
2753,94.15203890322468
2757,103.3931449561924
2758,94.15203890322468
2759,112.16714237430844
2760,94.15203890322468
2762,112.16714237430844
2764,94.15203890322468
2765,113.64707284457688
2769,112.16714237430844
2771,112.16714237430844
2774,94.15203890322468
2776,94.15203890322468
2777,113.64707284457688
2778,94.15203890322468
2779,112.16714237430844
2782,94.15203890322468
2784,94.15203890322468
2787,94.15203890322468
2789,94.15203890322468
2792,94.15203890322468
2798,94.15203890322468
2799,103.3931449561924
2800,94.15203890322468
2801,78.0996683548778
2802,94.15203890322468
2804,94.15203890322468
2807,103.3931449561924
2808,94.15203890322468
2809,114.3365642023994
2811,116.78144918502537
2812,94.15203890322468
2814,94.15203890322468
2816,94.15203890322468
2817,112.16714237430844
2818,112.16714237430844
2820,112.16714237430844
2821,78.0996683548778
2822,94.15203890322468
2823,103.3931449561924
2824,94.15203890322468
2826,94.15203890322468
2829,94.15203890322468
2834,94.15203890322468
2835,78.0996683548778
2838,94.15203890322468
2839,112.16714237430844
2840,94.15203890322468
2841,112.16714237430844
2842,94.15203890322468
2846,112.16714237430844
2848,94.15203890322468
2849,94.15203890322468
2850,112.16714237430844
2851,94.15203890322468
2853,94.15203890322468
2854,112.16714237430844
2858,112.16714237430844
2861,94.15203890322468
2864,94.15203890322468
2865,113.64707284457688
2866,112.16714237430844
2867,94.15203890322468
2868,112.16714237430844
2870,112.16714237430844
2877,94.15203890322468
2878,112.16714237430844
2880,112.16714237430844
2882,78.0996683548778
2883,94.15203890322468
2884,103.3931449561924
2885,94.15203890322468
2887,94.15203890322468
2888,112.16714237430844
2889,94.15203890322468
2890,103.3931449561924
2891,94.15203890322468
2892,116.78144918502537
2893,94.15203890322468
2898,112.16714237430844
2899,94.15203890322468
2900,112.16714237430844
2901,94.15203890322468
2909,94.15203890322468
2910,112.16714237430844
2911,112.16714237430844
2913,112.16714237430844
2914,94.15203890322468
2918,94.15203890322468
2919,112.16714237430844
2920,94.15203890322468
2921,112.16714237430844
2922,94.15203890322468
2923,103.3931449561924
2925,113.64707284457688
2926,94.15203890322468
2927,112.16714237430844
2929,112.16714237430844
2933,94.15203890322468
2934,112.16714237430844
2936,113.64707284457688
2941,103.3931449561924
2942,94.15203890322468
2943,112.16714237430844
2945,103.3931449561924
2950,94.15203890322468
2951,112.16714237430844
2953,114.3365642023994
2954,94.15203890322468
2955,103.3931449561924
2956,94.15203890322468
2960,94.15203890322468
2962,94.15203890322468
2963,103.3931449561924
2964,103.3931449561924
2966,78.0996683548778
2967,94.15203890322468
2968,112.16714237430844
2969,94.15203890322468
2971,94.15203890322468
2972,94.15203890322468
2974,94.15203890322468
2975,112.16714237430844
2977,116.78144918502537
2980,112.16714237430844
2981,94.15203890322468
2983,94.15203890322468
2984,103.3931449561924
2985,116.78144918502537
2986,103.3931449561924
2987,94.15203890322468
2989,94.15203890322468
2990,112.16714237430844
2991,94.15203890322468
2992,78.0996683548778
2995,103.62888026015688
2996,103.3931449561924
3002,112.16714237430844
3004,112.16714237430844
3005,116.78144918502537
3006,94.15203890322468
3010,94.15203890322468
3011,103.3931449561924
3014,94.15203890322468
3015,94.15203890322468
3016,94.15203890322468
3017,113.64707284457688
3018,94.15203890322468
3021,103.3931449561924
3024,103.3931449561924
3028,94.15203890322468
3030,94.15203890322468
3032,94.15203890322468
3039,94.15203890322468
3040,103.3931449561924
3041,94.15203890322468
3043,94.15203890322468
3044,112.16714237430844
3046,112.16714237430844
3055,94.15203890322468
3056,112.16714237430844
3058,94.15203890322468
3059,113.64707284457688
3061,116.78144918502537
3063,103.3931449561924
3066,94.15203890322468
3067,103.3931449561924
3068,78.0996683548778
3069,94.15203890322468
3072,116.78144918502537
3073,112.16714237430844
3074,94.15203890322468
3077,94.15203890322468
3082,94.15203890322468
3084,103.62888026015688
3085,112.16714237430844
3088,103.3931449561924
3091,94.15203890322468
3092,112.16714237430844
3093,94.15203890322468
3094,103.3931449561924
3096,112.16714237430844
3097,94.15203890322468
3098,78.0996683548778
3102,116.78144918502537
3106,94.15203890322468
3109,94.15203890322468
3111,94.15203890322468
3112,116.78144918502537
3113,94.15203890322468
3115,94.15203890322468
3116,112.16714237430844
3117,94.15203890322468
3121,112.16714237430844
3122,94.15203890322468
3123,94.15203890322468
3124,103.3931449561924
3125,94.15203890322468
3126,103.3931449561924
3127,116.78144918502537
3129,94.15203890322468
3130,112.16714237430844
3132,103.3931449561924
3134,103.3931449561924
3135,94.15203890322468
3137,78.0996683548778
3138,94.15203890322468
3140,94.15203890322468
3144,112.16714237430844
3145,94.15203890322468
3146,112.16714237430844
3147,94.15203890322468
3148,103.3931449561924
3149,103.3931449561924
3150,112.16714237430844
3151,94.15203890322468
3152,94.15203890322468
3155,94.15203890322468
3156,112.16714237430844
3159,94.15203890322468
3161,94.15203890322468
3162,103.3931449561924
3163,94.15203890322468
3165,103.3931449561924
3172,94.15203890322468
3173,112.16714237430844
3176,94.15203890322468
3177,103.3931449561924
3179,112.16714237430844
3183,94.15203890322468
3186,94.15203890322468
3187,103.3931449561924
3189,112.16714237430844
3190,94.15203890322468
3192,116.78144918502537
3193,94.15203890322468
3194,112.16714237430844
3197,94.15203890322468
3198,94.15203890322468
3200,94.15203890322468
3201,116.78144918502537
3202,94.15203890322468
3204,94.15203890322468
3205,94.15203890322468
3206,112.16714237430844
3208,103.3931449561924
3210,103.3931449561924
3211,94.15203890322468
3212,116.78144918502537
3213,94.15203890322468
3214,112.16714237430844
3216,103.3931449561924
3219,94.15203890322468
3220,113.64707284457688
3221,94.15203890322468
3226,110.50761666666666
3227,94.15203890322468
3228,112.16714237430844
3229,94.15203890322468
3232,78.0996683548778
3233,94.15203890322468
3234,94.15203890322468
3236,94.15203890322468
3238,112.16714237430844
3239,112.16714237430844
3240,94.15203890322468
3247,112.16714237430844
3249,103.3931449561924
3252,112.95410385302853
3253,94.15203890322468
3254,103.3931449561924
3255,94.15203890322468
3256,112.16714237430844
3257,94.15203890322468
3262,94.15203890322468
3263,103.3931449561924
3264,94.15203890322468
3266,112.16714237430844
3267,94.15203890322468
3269,94.15203890322468
3272,116.78144918502537
3274,94.15203890322468
3275,103.3931449561924
3277,94.15203890322468
3279,94.15203890322468
3280,103.3931449561924
3283,94.15203890322468
3285,94.15203890322468
3287,94.15203890322468
3288,103.3931449561924
3290,103.3931449561924
3291,94.15203890322468
3298,112.16714237430844
3299,94.15203890322468
3302,113.64707284457688
3303,94.15203890322468
3304,103.3931449561924
3307,94.15203890322468
3309,94.15203890322468
3314,78.0996683548778
3316,112.16714237430844
3317,94.15203890322468
3319,94.15203890322468
3320,112.16714237430844
3321,94.15203890322468
3322,103.3931449561924
3324,94.15203890322468
3326,94.15203890322468
3329,112.16714237430844
3330,94.15203890322468
3331,112.16714237430844
3335,116.78144918502537
3337,94.15203890322468
3338,103.3931449561924
3339,94.15203890322468
3340,112.16714237430844
3341,94.15203890322468
3343,94.15203890322468
3346,94.15203890322468
3348,94.15203890322468
3351,103.3931449561924
3352,116.78144918502537
3355,94.15203890322468
3356,112.16714237430844
3358,103.3931449561924
3359,94.15203890322468
3360,112.16714237430844
3371,112.16714237430844
3372,94.15203890322468
3374,94.15203890322468
3377,112.16714237430844
3378,94.15203890322468
3380,103.3931449561924
3382,94.15203890322468
3386,94.15203890322468
3389,112.16714237430844
3391,103.3931449561924
3393,94.15203890322468
3394,103.3931449561924
3395,94.15203890322468
3397,112.16714237430844
3398,94.15203890322468
3399,78.0996683548778
3400,94.15203890322468
3404,103.3931449561924
3407,112.16714237430844
3409,103.3931449561924
3419,94.15203890322468
3421,94.15203890322468
3425,94.15203890322468
3427,78.0996683548778
3428,116.78144918502537
3429,112.16714237430844
3431,94.15203890322468
3435,94.15203890322468
3436,112.16714237430844
3439,94.15203890322468
3441,94.15203890322468
3442,116.78144918502537
3443,94.15203890322468
3444,103.3931449561924
3445,94.15203890322468
3446,113.64707284457688
3449,94.15203890322468
3453,94.15203890322468
3457,94.15203890322468
3460,103.3931449561924
3461,94.15203890322468
3462,94.15203890322468
3464,103.3931449561924
3465,78.0996683548778
3466,94.15203890322468
3467,103.3931449561924
3468,94.15203890322468
3469,103.3931449561924
3470,103.3931449561924
3472,112.16714237430844
3473,94.15203890322468
3475,94.15203890322468
3476,112.16714237430844
3478,103.3931449561924
3479,94.15203890322468
3483,94.15203890322468
3484,103.3931449561924
3485,94.15203890322468
3487,94.15203890322468
3488,112.16714237430844
3496,112.16714237430844
3497,94.15203890322468
3499,94.15203890322468
3500,78.0996683548778
3501,94.15203890322468
3504,94.15203890322468
3508,103.3931449561924
3511,94.15203890322468
3512,112.16714237430844
3515,94.15203890322468
3517,94.15203890322468
3518,103.3931449561924
3526,112.16714237430844
3528,114.3365642023994
3529,94.15203890322468
3530,112.16714237430844
3531,94.15203890322468
3532,113.64707284457688
3533,94.15203890322468
3534,94.15203890322468
3535,78.0996683548778
3536,94.15203890322468
3537,112.16714237430844
3538,94.15203890322468
3539,112.16714237430844
3540,103.3931449561924
3545,112.16714237430844
3546,94.15203890322468
3550,103.3931449561924
3551,94.15203890322468
3553,94.15203890322468
3554,103.3931449561924
3557,94.15203890322468
3558,112.16714237430844
3559,94.15203890322468
3561,94.15203890322468
3562,112.16714237430844
3563,94.15203890322468
3564,103.3931449561924
3565,94.15203890322468
3567,94.15203890322468
3571,103.3931449561924
3572,94.15203890322468
3574,94.15203890322468
3576,94.15203890322468
3577,112.16714237430844
3578,94.15203890322468
3579,94.15203890322468
3583,94.15203890322468
3585,94.15203890322468
3586,103.3931449561924
3587,112.16714237430844
3593,94.15203890322468
3594,113.64707284457688
3595,94.15203890322468
3599,94.15203890322468
3600,103.3931449561924
3601,112.16714237430844
3602,94.15203890322468
3604,94.15203890322468
3609,116.78144918502537
3610,112.16714237430844
3612,112.16714237430844
3614,112.16714237430844
3615,94.15203890322468
3617,94.15203890322468
3618,112.16714237430844
3619,112.16714237430844
3620,112.16714237430844
3621,94.15203890322468
3625,94.15203890322468
3626,103.3931449561924
3630,103.3931449561924
3631,94.15203890322468
3632,103.3931449561924
3633,94.15203890322468
3634,112.16714237430844
3637,94.15203890322468
3639,94.15203890322468
3640,112.16714237430844
3641,94.15203890322468
3644,112.16714237430844
3645,94.15203890322468
3646,94.15203890322468
3647,94.15203890322468
3648,112.16714237430844
3653,112.16714237430844
3654,94.15203890322468
3655,112.16714237430844
3659,103.3931449561924
3660,94.15203890322468
3662,112.16714237430844
3666,94.15203890322468
3668,94.15203890322468
3671,94.15203890322468
3673,94.15203890322468
3674,112.16714237430844
3675,94.15203890322468
3681,94.15203890322468
3682,112.16714237430844
3686,112.16714237430844
3687,94.15203890322468
3692,78.0996683548778
3695,112.16714237430844
3696,94.15203890322468
3699,112.16714237430844
3705,112.16714237430844
3707,78.0996683548778
3708,94.15203890322468
3709,112.16714237430844
3710,94.15203890322468
3712,94.15203890322468
3715,112.16714237430844
3716,94.15203890322468
3720,112.16714237430844
3722,78.0996683548778
3726,94.15203890322468
3728,94.15203890322468
3729,112.16714237430844
3731,103.3931449561924
3735,112.16714237430844
3736,94.15203890322468
3739,103.3931449561924
3741,112.16714237430844
3743,103.3931449561924
3744,94.15203890322468
3745,112.16714237430844
3746,94.15203890322468
3751,94.15203890322468
3753,94.15203890322468
3760,112.16714237430844
3761,94.15203890322468
3762,112.16714237430844
3763,94.15203890322468
3765,94.15203890322468
3768,112.16714237430844
3769,94.15203890322468
3770,103.3931449561924
3773,112.16714237430844
3774,94.15203890322468
3776,94.15203890322468
3778,94.15203890322468
3779,112.16714237430844
3780,94.15203890322468
3781,112.16714237430844
3782,94.15203890322468
3783,112.16714237430844
3784,94.15203890322468
3786,94.15203890322468
3789,112.16714237430844
3790,94.15203890322468
3793,112.16714237430844
3795,112.16714237430844
3797,94.15203890322468
3798,116.78144918502537
3800,112.16714237430844
3804,94.15203890322468
3810,94.15203890322468
3815,112.16714237430844
3816,94.15203890322468
3818,103.3931449561924
3824,112.16714237430844
3828,103.3931449561924
3830,112.16714237430844
3831,94.15203890322468
3832,78.0996683548778
3834,112.16714237430844
3835,94.15203890322468
3836,112.16714237430844
3838,94.15203890322468
3839,116.78144918502537
3840,112.16714237430844
3845,94.15203890322468
3846,112.16714237430844
3847,94.15203890322468
3849,78.0996683548778
3853,112.16714237430844
3855,103.3931449561924
3856,94.15203890322468
3864,78.0996683548778
3865,94.15203890322468
3866,112.16714237430844
3867,94.15203890322468
3868,112.16714237430844
3869,94.15203890322468
3871,94.15203890322468
3875,103.3931449561924
3876,94.15203890322468
3878,94.15203890322468
3879,112.16714237430844
3881,112.16714237430844
3883,112.16714237430844
3884,94.15203890322468
3886,112.16714237430844
3890,94.15203890322468
3893,112.16714237430844
3897,103.3931449561924
3901,94.15203890322468
3902,112.16714237430844
3913,112.16714237430844
3914,94.15203890322468
3916,94.15203890322468
3917,112.16714237430844
3924,103.3931449561924
3925,94.15203890322468
3928,94.15203890322468
3929,112.16714237430844
3932,94.15203890322468
3933,103.3931449561924
3934,78.0996683548778
3935,94.15203890322468
3936,94.15203890322468
3937,112.16714237430844
3938,94.15203890322468
3939,112.16714237430844
3943,94.15203890322468
3944,112.16714237430844
3945,112.16714237430844
3946,94.15203890322468
3947,112.16714237430844
3948,94.15203890322468
3949,112.16714237430844
3950,94.15203890322468
3951,112.16714237430844
3952,94.15203890322468
3953,112.16714237430844
3961,113.64707284457688
3962,94.15203890322468
3966,94.15203890322468
3967,103.3931449561924
3968,94.15203890322468
3969,112.16714237430844
3970,94.15203890322468
3971,103.3931449561924
3973,94.15203890322468
3974,112.16714237430844
3975,112.16714237430844
3977,94.15203890322468
3979,112.16714237430844
3985,94.15203890322468
3986,103.3931449561924
3988,112.16714237430844
3991,94.15203890322468
3992,103.3931449561924
3993,94.15203890322468
3994,94.15203890322468
3995,112.16714237430844
4005,112.16714237430844
4007,94.15203890322468
4008,103.3931449561924
4009,94.15203890322468
4010,112.16714237430844
4011,78.0996683548778
4012,94.15203890322468
4013,103.3931449561924
4015,112.16714237430844
4016,112.16714237430844
4018,112.16714237430844
4025,94.15203890322468
4026,112.16714237430844
4028,112.16714237430844
4029,94.15203890322468
4031,94.15203890322468
4032,112.16714237430844
4033,94.15203890322468
4034,103.3931449561924
4037,94.15203890322468
4038,103.3931449561924
4039,94.15203890322468
4041,94.15203890322468
4042,112.16714237430844
4043,94.15203890322468
4044,103.3931449561924
4045,94.15203890322468
4046,112.16714237430844
4047,94.15203890322468
4048,103.3931449561924
4049,94.15203890322468
4051,94.15203890322468
4052,112.16714237430844
4058,103.3931449561924
4062,112.16714237430844
4064,112.16714237430844
4067,94.15203890322468
4068,78.0996683548778
4070,94.15203890322468
4072,116.78144918502537
4074,112.16714237430844
4075,94.15203890322468
4076,112.16714237430844
4077,94.15203890322468
4078,112.16714237430844
4080,103.3931449561924
4082,112.16714237430844
4085,94.15203890322468
4086,112.16714237430844
4088,112.16714237430844
4089,94.15203890322468
4092,78.0996683548778
4094,94.15203890322468
4095,112.16714237430844
4096,94.15203890322468
4097,103.3931449561924
4102,94.15203890322468
4105,113.64707284457688
4107,112.16714237430844
4111,94.15203890322468
4112,103.3931449561924
4113,94.15203890322468
4114,113.64707284457688
4115,94.15203890322468
4116,112.16714237430844
4117,94.15203890322468
4118,94.15203890322468
4119,112.16714237430844
4120,94.15203890322468
4122,78.0996683548778
4125,94.15203890322468
4126,112.16714237430844
4129,112.16714237430844
4134,112.16714237430844
4137,94.15203890322468
4141,103.3931449561924
4142,94.15203890322468
4144,94.15203890322468
4145,103.3931449561924
4146,94.15203890322468
4150,94.15203890322468
4151,78.0996683548778
4154,94.15203890322468
4156,94.15203890322468
4157,112.16714237430844
4159,112.16714237430844
4160,94.15203890322468
4161,112.16714237430844
4168,94.15203890322468
4171,103.3931449561924
4172,103.3931449561924
4173,94.15203890322468
4175,94.15203890322468
4176,103.3931449561924
4177,94.15203890322468
4178,103.3931449561924
4179,94.15203890322468
4181,112.16714237430844
4183,94.15203890322468
4184,112.16714237430844
4185,94.15203890322468
4186,112.16714237430844
4188,112.95410385302853
4190,112.16714237430844
4192,94.15203890322468
4193,112.16714237430844
4194,112.16714237430844
4195,94.15203890322468
4196,78.0996683548778
4202,94.15203890322468
4203,103.3931449561924
4208,94.15203890322468
4209,112.16714237430844
4210,94.15203890322468
4211,112.16714237430844
4212,116.78144918502537
4214,103.3931449561924
4215,94.15203890322468
4216,112.16714237430844
4217,94.15203890322468
4219,94.15203890322468
4222,112.16714237430844
4224,78.0996683548778
4231,103.3931449561924
4232,94.15203890322468
4234,94.15203890322468
4236,94.15203890322468
4237,103.3931449561924
4240,94.15203890322468
4242,103.3931449561924
4243,94.15203890322468
4247,94.15203890322468
4248,112.16714237430844
4249,94.15203890322468
4254,103.3931449561924
4263,94.15203890322468
4265,112.16714237430844
4267,113.64707284457688
4268,112.16714237430844
4271,112.16714237430844
4272,94.15203890322468
4273,112.16714237430844
4274,94.15203890322468
4276,94.15203890322468
4278,94.15203890322468
4280,94.15203890322468
4281,112.16714237430844
4283,94.15203890322468
4284,112.16714237430844
4285,94.15203890322468
4286,112.16714237430844
4287,94.15203890322468
4288,112.16714237430844
4289,94.15203890322468
4290,78.0996683548778
4293,94.15203890322468
4296,113.64707284457688
4297,94.15203890322468
4299,94.15203890322468
4303,112.16714237430844
4310,94.15203890322468
4312,103.3931449561924
4318,103.3931449561924
4320,112.16714237430844
4322,94.15203890322468
4323,112.95410385302853
4325,103.3931449561924
4326,112.16714237430844
4328,103.3931449561924
4330,103.3931449561924
4332,112.16714237430844
4333,94.15203890322468
4335,94.15203890322468
4336,113.64707284457688
4338,103.3931449561924
4341,94.15203890322468
4342,103.3931449561924
4344,103.3931449561924
4347,94.15203890322468
4348,103.3931449561924
4351,110.50761666666666
4352,94.15203890322468
4353,112.16714237430844
4355,103.3931449561924
4356,94.15203890322468
4359,103.3931449561924
4360,94.15203890322468
4361,94.15203890322468
4364,94.15203890322468
4365,103.3931449561924
4368,94.15203890322468
4372,94.15203890322468
4374,94.15203890322468
4376,94.15203890322468
4377,103.3931449561924
4380,94.15203890322468
4383,103.3931449561924
4384,94.15203890322468
4385,103.3931449561924
4389,94.15203890322468
4391,94.15203890322468
4392,112.16714237430844
4393,94.15203890322468
4395,94.15203890322468
4396,112.16714237430844
4398,112.16714237430844
4399,94.15203890322468
4401,94.15203890322468
4406,94.15203890322468
4408,103.3931449561924
4412,103.3931449561924
4415,94.15203890322468
4418,112.16714237430844
4419,94.15203890322468
4420,78.0996683548778
4422,112.16714237430844
4423,94.15203890322468
4425,94.15203890322468
4428,112.16714237430844
4431,112.16714237430844
4434,94.15203890322468
4436,94.15203890322468
4437,112.16714237430844
4439,116.78144918502537
4440,94.15203890322468
4441,112.16714237430844
4444,94.15203890322468
4445,103.3931449561924
4446,94.15203890322468
4447,112.16714237430844
4452,103.3931449561924
4456,112.16714237430844
4457,94.15203890322468
4458,112.16714237430844
4460,94.15203890322468
4461,116.78144918502537
4462,94.15203890322468
4465,103.3931449561924
4466,103.3931449561924
4468,94.15203890322468
4469,103.3931449561924
4472,112.16714237430844
4475,94.15203890322468
4478,94.15203890322468
4479,112.16714237430844
4480,94.15203890322468
4483,78.0996683548778
4484,94.15203890322468
4485,103.3931449561924
4486,94.15203890322468
4488,94.15203890322468
4489,103.3931449561924
4490,94.15203890322468
4491,111.12371406487725
4492,94.15203890322468
4493,110.50761666666666
4494,94.15203890322468
4495,103.3931449561924
4498,78.0996683548778
4499,94.15203890322468
4500,103.3931449561924
4503,112.16714237430844
4505,103.3931449561924
4506,94.15203890322468
4507,94.15203890322468
4508,103.3931449561924
4510,112.16714237430844
4511,94.15203890322468
4513,94.15203890322468
4516,78.0996683548778
4519,94.15203890322468
4521,94.15203890322468
4531,94.15203890322468
4532,78.0996683548778
4533,94.15203890322468
4534,112.16714237430844
4536,103.3931449561924
4537,94.15203890322468
4539,94.15203890322468
4542,103.3931449561924
4545,94.15203890322468
4549,94.15203890322468
4551,94.15203890322468
4554,103.3931449561924
4556,112.16714237430844
4559,112.16714237430844
4561,112.16714237430844
4562,112.16714237430844
4566,112.16714237430844
4569,94.15203890322468
4570,112.16714237430844
4573,94.15203890322468
4574,103.3931449561924
4575,94.15203890322468
4577,94.15203890322468
4578,112.16714237430844
4580,112.16714237430844
4582,94.15203890322468
4583,112.16714237430844
4585,94.15203890322468
4587,103.3931449561924
4595,94.15203890322468
4596,112.16714237430844
4601,94.15203890322468
4602,112.16714237430844
4603,94.15203890322468
4605,112.16714237430844
4606,94.15203890322468
4607,112.16714237430844
4608,94.15203890322468
4610,94.15203890322468
4613,103.3931449561924
4617,94.15203890322468
4618,112.16714237430844
4619,94.15203890322468
4620,94.15203890322468
4622,94.15203890322468
4625,94.15203890322468
4626,103.3931449561924
4627,94.15203890322468
4629,94.15203890322468
4631,94.15203890322468
4633,103.3931449561924
4634,112.95410385302853
4635,94.15203890322468
4639,94.15203890322468
4640,103.3931449561924
4642,103.3931449561924
4644,112.16714237430844
4646,103.3931449561924
4647,94.15203890322468
4648,78.0996683548778
4649,94.15203890322468
4650,112.16714237430844
4655,94.15203890322468
4660,94.15203890322468
4661,112.16714237430844
4662,94.15203890322468
4663,112.16714237430844
4665,94.15203890322468
4666,112.16714237430844
4667,103.3931449561924
4668,94.15203890322468
4670,94.15203890322468
4671,113.64707284457688
4672,94.15203890322468
4673,103.3931449561924
4675,103.3931449561924
4676,94.15203890322468
4677,113.64707284457688
4680,94.15203890322468
4682,94.15203890322468
4683,112.16714237430844
4685,103.3931449561924
4686,94.15203890322468
4688,112.16714237430844
4690,112.16714237430844
4692,112.16714237430844
4693,94.15203890322468
4697,94.15203890322468
4700,112.16714237430844
4702,112.16714237430844
4707,116.78144918502537
4708,94.15203890322468
4710,78.0996683548778
4716,94.15203890322468
4717,94.15203890322468
4718,94.15203890322468
4720,94.15203890322468
4721,78.0996683548778
4723,94.15203890322468
4726,112.16714237430844
4727,94.15203890322468
4729,94.15203890322468
4731,94.15203890322468
4732,112.16714237430844
4735,94.15203890322468
4736,103.3931449561924
4737,94.15203890322468
4738,112.16714237430844
4739,112.16714237430844
4744,103.3931449561924
4747,94.15203890322468
4749,112.16714237430844
4750,94.15203890322468
4752,112.16714237430844
4755,94.15203890322468
4756,103.3931449561924
4757,112.16714237430844
4758,94.15203890322468
4759,103.3931449561924
4763,94.15203890322468
4764,103.3931449561924
4765,94.15203890322468
4766,94.15203890322468
4767,112.16714237430844
4769,112.16714237430844
4770,94.15203890322468
4771,78.0996683548778
4772,103.3931449561924
4774,112.16714237430844
4776,112.16714237430844
4777,112.16714237430844
4778,94.15203890322468
4780,94.15203890322468
4784,94.15203890322468
4786,94.15203890322468
4787,78.0996683548778
4788,94.15203890322468
4789,112.16714237430844
4791,103.3931449561924
4792,94.15203890322468
4795,112.16714237430844
4796,94.15203890322468
4803,94.15203890322468
4805,94.15203890322468
4807,94.15203890322468
4809,94.15203890322468
4816,94.15203890322468
4817,78.0996683548778
4818,94.15203890322468
4820,94.15203890322468
4821,103.3931449561924
4823,112.16714237430844
4824,94.15203890322468
4825,112.16714237430844
4829,103.3931449561924
4830,94.15203890322468
4831,112.16714237430844
4833,103.3931449561924
4836,94.15203890322468
4837,112.16714237430844
4838,94.15203890322468
4840,94.15203890322468
4841,78.0996683548778
4842,94.15203890322468
4843,112.16714237430844
4844,94.15203890322468
4849,110.50761666666666
4851,103.3931449561924
4852,94.15203890322468
4858,94.15203890322468
4860,94.15203890322468
4863,112.16714237430844
4864,94.15203890322468
4865,112.16714237430844
4867,112.16714237430844
4868,94.15203890322468
4869,112.16714237430844
4873,94.15203890322468
4875,94.15203890322468
4876,112.16714237430844
4877,94.15203890322468
4878,112.16714237430844
4880,78.0996683548778
4886,112.16714237430844
4888,103.3931449561924
4889,94.15203890322468
4890,112.16714237430844
4893,94.15203890322468
4895,94.15203890322468
4896,103.3931449561924
4899,94.15203890322468
4901,94.15203890322468
4902,112.16714237430844
4903,94.15203890322468
4904,112.16714237430844
4910,94.15203890322468
4912,94.15203890322468
4915,94.15203890322468
4916,103.3931449561924
4917,94.15203890322468
4920,103.3931449561924
4927,103.3931449561924
4928,94.15203890322468
4931,103.3931449561924
4934,94.15203890322468
4936,94.15203890322468
4939,112.16714237430844
4942,112.16714237430844
4943,94.15203890322468
4944,103.3931449561924
4945,94.15203890322468
4947,112.16714237430844
4948,94.15203890322468
4951,94.15203890322468
4952,112.16714237430844
4953,94.15203890322468
4956,94.15203890322468
4957,112.16714237430844
4958,94.15203890322468
4960,94.15203890322468
4968,94.15203890322468
4969,103.3931449561924
4971,103.3931449561924
4973,112.16714237430844
4975,112.16714237430844
4976,94.15203890322468
4978,94.15203890322468
4979,112.16714237430844
4982,94.15203890322468
4983,112.16714237430844
4984,94.15203890322468
4985,116.78144918502537
4986,94.15203890322468
4987,113.64707284457688
4988,94.15203890322468
4994,94.15203890322468
4995,94.15203890322468
5002,78.0996683548778
5004,94.15203890322468
5005,103.3931449561924
5006,94.15203890322468
5007,103.3931449561924
5009,112.16714237430844
5011,112.16714237430844
5014,94.15203890322468
5015,103.3931449561924
5018,94.15203890322468
5019,112.16714237430844
5020,94.15203890322468
5021,112.16714237430844
5022,94.15203890322468
5023,94.15203890322468
5025,94.15203890322468
5032,94.15203890322468
5034,94.15203890322468
5036,94.15203890322468
5038,94.15203890322468
5039,112.16714237430844
5046,94.15203890322468
5049,112.16714237430844
5051,94.15203890322468
5052,94.15203890322468
5053,112.16714237430844
5054,94.15203890322468
5055,94.15203890322468
5057,94.15203890322468
5059,94.15203890322468
5062,94.15203890322468
5063,112.16714237430844
5065,112.16714237430844
5069,94.15203890322468
5071,94.15203890322468
5074,112.16714237430844
5075,94.15203890322468
5076,112.16714237430844
5077,78.0996683548778
5079,103.3931449561924
5080,94.15203890322468
5081,112.16714237430844
5083,103.3931449561924
5088,103.3931449561924
5089,94.15203890322468
5093,112.16714237430844
5094,103.3931449561924
5095,94.15203890322468
5099,113.64707284457688
5101,112.16714237430844
5103,103.3931449561924
5104,94.15203890322468
5105,112.16714237430844
5107,94.15203890322468
5108,112.16714237430844
5109,94.15203890322468
5111,94.15203890322468
5112,112.16714237430844
5113,94.15203890322468
5114,112.16714237430844
5115,94.15203890322468
5118,94.15203890322468
5122,94.15203890322468
5123,78.0996683548778
5125,94.15203890322468
5127,103.3931449561924
5128,94.15203890322468
5129,116.78144918502537
5132,94.15203890322468
5134,112.16714237430844
5135,94.15203890322468
5137,112.16714237430844
5142,94.15203890322468
5143,103.3931449561924
5144,94.15203890322468
5148,94.15203890322468
5149,94.15203890322468
5150,103.3931449561924
5154,78.0996683548778
5155,94.15203890322468
5159,94.15203890322468
5164,94.15203890322468
5165,112.16714237430844
5166,94.15203890322468
5167,112.16714237430844
5169,94.15203890322468
5171,94.15203890322468
5172,112.16714237430844
5176,94.15203890322468
5184,112.16714237430844
5185,94.15203890322468
5186,112.16714237430844
5188,103.3931449561924
5189,112.16714237430844
5190,94.15203890322468
5191,112.16714237430844
5193,112.16714237430844
5196,94.15203890322468
5199,78.0996683548778
5200,103.3931449561924
5203,94.15203890322468
5204,112.16714237430844
5205,94.15203890322468
5207,94.15203890322468
5208,111.12371406487725
5212,94.15203890322468
5214,94.15203890322468
5218,94.15203890322468
5220,94.15203890322468
5222,94.15203890322468
5224,94.15203890322468
5225,103.3931449561924
5227,103.62888026015688
5229,103.3931449561924
5232,94.15203890322468
5233,116.78144918502537
5234,103.3931449561924
5237,112.16714237430844
5239,113.64707284457688
5240,94.15203890322468
5241,112.16714237430844
5244,94.15203890322468
5248,112.16714237430844
5251,94.15203890322468
5253,94.15203890322468
5255,94.15203890322468
5256,103.3931449561924
5257,94.15203890322468
5259,94.15203890322468
5260,112.16714237430844
5266,94.15203890322468
5268,94.15203890322468
5275,112.16714237430844
5276,112.16714237430844
5277,94.15203890322468
5279,94.15203890322468
5280,103.3931449561924
5281,94.15203890322468
5283,94.15203890322468
5284,78.0996683548778
5285,94.15203890322468
5286,103.3931449561924
5287,94.15203890322468
5289,94.15203890322468
5290,112.16714237430844
5292,103.3931449561924
5293,94.15203890322468
5294,103.3931449561924
5297,94.15203890322468
5299,103.3931449561924
5302,94.15203890322468
5305,78.0996683548778
5306,94.15203890322468
5308,94.15203890322468
5309,94.15203890322468
5310,112.16714237430844
5312,112.16714237430844
5316,112.16714237430844
5317,94.15203890322468
5319,78.0996683548778
5320,94.15203890322468
5323,94.15203890322468
5329,112.16714237430844
5331,112.16714237430844
5334,112.16714237430844
5336,112.16714237430844
5338,103.3931449561924
5341,94.15203890322468
5345,94.15203890322468
5348,94.15203890322468
5349,112.16714237430844
5355,103.3931449561924
5356,94.15203890322468
5360,103.3931449561924
5362,112.16714237430844
5364,112.16714237430844
5366,103.3931449561924
5367,94.15203890322468
5368,94.15203890322468
5370,94.15203890322468
5371,78.0996683548778
5373,103.3931449561924
5375,112.16714237430844
5376,94.15203890322468
5378,112.16714237430844
5379,94.15203890322468
5383,94.15203890322468
5384,103.3931449561924
5389,112.16714237430844
5391,78.0996683548778
5393,112.16714237430844
5395,112.16714237430844
5397,112.16714237430844
5398,94.15203890322468
5399,112.16714237430844
5401,116.78144918502537
5402,94.15203890322468
5403,112.16714237430844
5404,94.15203890322468
5407,78.0996683548778
5408,94.15203890322468
5413,113.64707284457688
5414,94.15203890322468
5417,94.15203890322468
5418,103.3931449561924
5420,112.16714237430844
5421,94.15203890322468
5424,94.15203890322468
5425,112.16714237430844
5426,94.15203890322468
5429,112.16714237430844
5431,94.15203890322468
5437,103.3931449561924
5440,94.15203890322468
5444,103.3931449561924
5446,103.3931449561924
5447,94.15203890322468
5451,94.15203890322468
5452,112.16714237430844
5455,103.3931449561924
5456,94.15203890322468
5458,94.15203890322468
5459,112.16714237430844
5460,94.15203890322468
5462,94.15203890322468
5463,112.16714237430844
5464,94.15203890322468
5465,112.16714237430844
5466,94.15203890322468
5467,103.3931449561924
5468,94.15203890322468
5469,112.16714237430844
5472,94.15203890322468
5474,94.15203890322468
5475,112.16714237430844
5476,94.15203890322468
5479,103.3931449561924
5480,112.16714237430844
5482,112.16714237430844
5485,94.15203890322468
5486,116.78144918502537
5488,78.0996683548778
5495,103.3931449561924
5496,94.15203890322468
5497,112.16714237430844
5499,112.16714237430844
5503,94.15203890322468
5504,94.15203890322468
5507,94.15203890322468
5509,94.15203890322468
5511,94.15203890322468
5512,112.16714237430844
5516,112.16714237430844
5517,94.15203890322468
5518,103.3931449561924
5521,94.15203890322468
5522,103.3931449561924
5527,94.15203890322468
5528,94.15203890322468
5529,112.16714237430844
5532,94.15203890322468
5533,112.16714237430844
5535,103.3931449561924
5536,94.15203890322468
5540,94.15203890322468
5547,94.15203890322468
5548,112.16714237430844
5550,78.0996683548778
5551,94.15203890322468
5554,112.16714237430844
5555,94.15203890322468
5559,112.16714237430844
5560,94.15203890322468
5561,112.16714237430844
5562,94.15203890322468
5563,112.16714237430844
5565,78.0996683548778
5566,94.15203890322468
5567,103.3931449561924
5568,94.15203890322468
5572,94.15203890322468
5574,94.15203890322468
5576,94.15203890322468
5579,112.16714237430844
5580,78.0996683548778
5581,94.15203890322468
5583,94.15203890322468
5584,112.16714237430844
5586,112.16714237430844
5587,94.15203890322468
5589,103.3931449561924
5591,103.3931449561924
5592,94.15203890322468
5593,112.16714237430844
5594,94.15203890322468
5595,78.0996683548778
5596,112.16714237430844
5597,112.16714237430844
5598,116.78144918502537
5599,94.15203890322468
5602,112.16714237430844
5603,94.15203890322468
5605,94.15203890322468
5607,94.15203890322468
5608,112.16714237430844
5609,94.15203890322468
5610,94.15203890322468
5612,94.15203890322468
5613,112.16714237430844
5614,94.15203890322468
5616,94.15203890322468
5621,94.15203890322468
5623,94.15203890322468
5628,113.64707284457688
5629,94.15203890322468
5631,94.15203890322468
5633,94.15203890322468
5638,103.3931449561924
5639,94.15203890322468
5640,103.3931449561924
5645,94.15203890322468
5646,78.0996683548778
5649,94.15203890322468
5653,112.16714237430844
5655,112.16714237430844
5656,94.15203890322468
5658,94.15203890322468
5662,116.78144918502537
5663,94.15203890322468
5667,94.15203890322468
5670,94.15203890322468
5671,103.3931449561924
5672,94.15203890322468
5673,103.3931449561924
5674,94.15203890322468
5675,103.3931449561924
5676,94.15203890322468
5679,112.16714237430844
5683,112.16714237430844
5687,94.15203890322468
5688,78.0996683548778
5690,94.15203890322468
5691,112.16714237430844
5692,94.15203890322468
5693,113.64707284457688
5694,94.15203890322468
5697,112.16714237430844
5698,94.15203890322468
5699,112.16714237430844
5704,94.15203890322468
5707,112.16714237430844
5709,103.3931449561924
5710,94.15203890322468
5714,94.15203890322468
5718,94.15203890322468
5721,94.15203890322468
5723,94.15203890322468
5724,112.16714237430844
5725,94.15203890322468
5726,112.16714237430844
5729,94.15203890322468
5730,103.3931449561924
5731,94.15203890322468
5733,78.0996683548778
5736,94.15203890322468
5741,103.3931449561924
5745,112.16714237430844
5747,94.15203890322468
5748,103.3931449561924
5750,112.16714237430844
5751,94.15203890322468
5752,94.15203890322468
5754,94.15203890322468
5755,94.15203890322468
5757,94.15203890322468
5758,116.78144918502537
5760,103.3931449561924
5762,103.3931449561924
5766,112.16714237430844
5768,94.15203890322468
5769,116.78144918502537
5770,94.15203890322468
5771,112.16714237430844
5772,94.15203890322468
5773,113.64707284457688
5774,94.15203890322468
5776,94.15203890322468
5777,112.16714237430844
5778,94.15203890322468
5780,112.16714237430844
5782,94.15203890322468
5783,78.0996683548778
5784,94.15203890322468
5786,94.15203890322468
5788,94.15203890322468
5789,112.16714237430844
5790,94.15203890322468
5791,103.3931449561924
5793,103.3931449561924
5794,94.15203890322468
5796,116.78144918502537
5797,94.15203890322468
5801,94.15203890322468
5803,94.15203890322468
5804,112.16714237430844
5805,94.15203890322468
5806,78.0996683548778
5808,112.16714237430844
5813,94.15203890322468
5815,94.15203890322468
5816,103.3931449561924
5822,94.15203890322468
5823,112.16714237430844
5825,103.3931449561924
5827,112.16714237430844
5829,103.3931449561924
5830,94.15203890322468
5831,112.16714237430844
5832,94.15203890322468
5833,112.16714237430844
5837,113.64707284457688
5838,94.15203890322468
5839,94.15203890322468
5842,103.3931449561924
5844,112.16714237430844
5845,103.3931449561924
5846,112.16714237430844
5848,78.0996683548778
5850,112.16714237430844
5851,94.15203890322468
5853,94.15203890322468
5854,103.3931449561924
5858,103.3931449561924
5860,112.16714237430844
5864,103.3931449561924
5866,94.15203890322468
5867,112.16714237430844
5868,94.15203890322468
5869,112.16714237430844
5870,94.15203890322468
5871,112.16714237430844
5874,112.16714237430844
5876,112.16714237430844
5877,94.15203890322468
5878,94.15203890322468
5879,112.16714237430844
5880,94.15203890322468
5884,94.15203890322468
5886,112.16714237430844
5890,94.15203890322468
5896,94.15203890322468
5897,103.3931449561924
5898,94.15203890322468
5901,103.3931449561924
5903,112.16714237430844
5906,94.15203890322468
5908,112.16714237430844
5909,94.15203890322468
5910,112.16714237430844
5911,94.15203890322468
5912,112.16714237430844
5914,112.16714237430844
5919,112.16714237430844
5924,94.15203890322468
5926,94.15203890322468
5929,103.3931449561924
5930,94.15203890322468
5932,94.15203890322468
5933,112.16714237430844
5934,94.15203890322468
5935,112.16714237430844
5936,94.15203890322468
5937,112.16714237430844
5938,94.15203890322468
5939,113.64707284457688
5942,112.16714237430844
5943,94.15203890322468
5944,103.3931449561924
5946,112.16714237430844
5951,94.15203890322468
5953,103.3931449561924
5954,94.15203890322468
5957,103.3931449561924
5961,94.15203890322468
5962,103.3931449561924
5964,78.0996683548778
5965,94.15203890322468
5968,112.16714237430844
5969,94.15203890322468
5974,94.15203890322468
5975,112.16714237430844
5978,78.0996683548778
5981,103.3931449561924
5982,94.15203890322468
5983,112.16714237430844
5989,113.64707284457688
5991,94.15203890322468
5992,103.3931449561924
5995,94.15203890322468
5996,103.3931449561924
5997,112.16714237430844
5998,94.15203890322468
5999,78.0996683548778
6001,112.16714237430844
6002,94.15203890322468
6003,112.16714237430844
6004,94.15203890322468
6006,112.16714237430844
6007,94.15203890322468
6011,94.15203890322468
6012,103.3931449561924
6014,94.15203890322468
6015,103.3931449561924
6016,94.15203890322468
6017,112.16714237430844
6018,94.15203890322468
6024,94.15203890322468
6025,103.3931449561924
6026,112.16714237430844
6028,112.16714237430844
6029,78.0996683548778
6030,94.15203890322468
6036,112.16714237430844
6040,94.15203890322468
6041,112.16714237430844
6042,94.15203890322468
6044,94.15203890322468
6045,103.3931449561924
6047,103.3931449561924
6048,94.15203890322468
6049,112.16714237430844
6051,116.78144918502537
6052,112.16714237430844
6053,94.15203890322468
6054,112.16714237430844
6058,103.3931449561924
6059,94.15203890322468
6062,94.15203890322468
6063,116.78144918502537
6064,103.3931449561924
6065,94.15203890322468
6067,94.15203890322468
6068,112.16714237430844
6070,103.3931449561924
6071,94.15203890322468
6072,112.16714237430844
6080,112.16714237430844
6081,94.15203890322468
6084,103.3931449561924
6087,94.15203890322468
6089,103.3931449561924
6092,112.16714237430844
6094,94.15203890322468
6095,112.16714237430844
6097,112.16714237430844
6100,94.15203890322468
6104,103.3931449561924
6105,94.15203890322468
6106,112.16714237430844
6107,78.0996683548778
6108,94.15203890322468
6109,112.16714237430844
6110,94.15203890322468
6114,112.16714237430844
6116,94.15203890322468
6117,103.3931449561924
6118,94.15203890322468
6123,78.0996683548778
6125,112.16714237430844
6128,112.16714237430844
6130,103.3931449561924
6132,112.16714237430844
6137,78.0996683548778
6139,112.16714237430844
6140,94.15203890322468
6141,112.16714237430844
6142,103.3931449561924
6144,110.50761666666666
6145,94.15203890322468
6146,94.15203890322468
6149,94.15203890322468
6156,94.15203890322468
6159,112.16714237430844
6160,94.15203890322468
6162,103.3931449561924
6164,112.16714237430844
6165,94.15203890322468
6168,78.0996683548778
6169,112.16714237430844
6170,94.15203890322468
6171,112.16714237430844
6172,94.15203890322468
6173,112.95410385302853
6176,94.15203890322468
6177,94.15203890322468
6178,94.15203890322468
6180,94.15203890322468
6181,103.3931449561924
6182,94.15203890322468
6185,94.15203890322468
6186,112.16714237430844
6188,112.16714237430844
6189,94.15203890322468
6192,103.3931449561924
6193,94.15203890322468
6194,103.3931449561924
6195,94.15203890322468
6196,116.78144918502537
6197,94.15203890322468
6201,112.16714237430844
6202,94.15203890322468
6203,112.16714237430844
6204,94.15203890322468
6207,116.78144918502537
6209,94.15203890322468
6210,94.15203890322468
6211,112.16714237430844
6213,112.16714237430844
6216,94.15203890322468
6217,94.15203890322468
6219,94.15203890322468
6222,78.0996683548778
6223,94.15203890322468
6235,94.15203890322468
6240,94.15203890322468
6242,94.15203890322468
6247,94.15203890322468
6251,112.16714237430844
6254,112.16714237430844
6255,94.15203890322468
6260,103.3931449561924
6261,94.15203890322468
6262,103.3931449561924
6264,112.16714237430844
6269,103.3931449561924
6271,103.3931449561924
6275,112.16714237430844
6276,94.15203890322468
6278,94.15203890322468
6279,112.16714237430844
6281,112.16714237430844
6284,94.15203890322468
6286,94.15203890322468
6287,78.0996683548778
6288,94.15203890322468
6292,94.15203890322468
6293,94.15203890322468
6295,94.15203890322468
6298,112.16714237430844
6300,112.16714237430844
6304,103.3931449561924
6308,112.16714237430844
6310,94.15203890322468
6312,112.16714237430844
6320,94.15203890322468
6324,94.15203890322468
6325,112.16714237430844
6330,94.15203890322468
6336,112.16714237430844
6340,103.3931449561924
6341,94.15203890322468
6342,103.3931449561924
6344,94.15203890322468
6345,112.16714237430844
6347,112.16714237430844
6348,94.15203890322468
6349,112.16714237430844
6351,78.0996683548778
6353,112.16714237430844
6354,94.15203890322468
6357,94.15203890322468
6358,103.3931449561924
6360,103.3931449561924
6363,113.64707284457688
6364,94.15203890322468
6368,112.16714237430844
6370,94.15203890322468
6371,94.15203890322468
6377,94.15203890322468
6379,94.15203890322468
6381,94.15203890322468
6382,78.0996683548778
6383,112.16714237430844
6388,112.16714237430844
6390,112.16714237430844
6392,103.3931449561924
6393,94.15203890322468
6395,94.15203890322468
6398,103.3931449561924
6401,78.0996683548778
6402,94.15203890322468
6403,112.16714237430844
6405,94.15203890322468
6406,94.15203890322468
6407,112.16714237430844
6409,103.3931449561924
6411,94.15203890322468
6413,94.15203890322468
6416,103.3931449561924
6417,94.15203890322468
6418,94.15203890322468
6419,116.78144918502537
6420,112.16714237430844
6426,112.16714237430844
6429,94.15203890322468
6430,94.15203890322468
6431,112.16714237430844
6432,94.15203890322468
6434,94.15203890322468
6437,112.16714237430844
6438,94.15203890322468
6439,103.3931449561924
6440,94.15203890322468
6441,94.15203890322468
6442,112.16714237430844
6443,94.15203890322468
6445,94.15203890322468
6448,112.16714237430844
6450,112.16714237430844
6453,94.15203890322468
6455,94.15203890322468
6457,94.15203890322468
6458,112.16714237430844
6461,94.15203890322468
6464,112.16714237430844
6467,94.15203890322468
6469,94.15203890322468
6470,78.0996683548778
6471,94.15203890322468
6473,103.3931449561924
6474,94.15203890322468
6479,94.15203890322468
6481,94.15203890322468
6484,112.16714237430844
6495,94.15203890322468
6496,112.16714237430844
6505,112.16714237430844
6506,94.15203890322468
6508,94.15203890322468
6509,94.15203890322468
6510,103.3931449561924
6512,103.3931449561924
6513,94.15203890322468
6514,112.16714237430844
6515,94.15203890322468
6519,94.15203890322468
6521,94.15203890322468
6523,78.0996683548778
6525,103.3931449561924
6526,94.15203890322468
6528,94.15203890322468
6529,112.16714237430844
6531,103.3931449561924
6533,103.3931449561924
6534,94.15203890322468
6535,112.16714237430844
6536,94.15203890322468
6537,112.16714237430844
6540,94.15203890322468
6541,112.16714237430844
6547,94.15203890322468
6548,112.16714237430844
6551,112.16714237430844
6553,112.16714237430844
6555,103.3931449561924
6556,94.15203890322468
6561,78.0996683548778
6564,94.15203890322468
6565,112.16714237430844
6568,94.15203890322468
6569,112.16714237430844
6573,103.3931449561924
6574,94.15203890322468
6577,112.16714237430844
6579,113.64707284457688
6581,94.15203890322468
6582,112.16714237430844
6585,103.3931449561924
6586,94.15203890322468
6589,103.3931449561924
6590,78.0996683548778
6593,94.15203890322468
6594,112.16714237430844
6595,94.15203890322468
6599,94.15203890322468
6600,94.15203890322468
6601,112.16714237430844
6602,94.15203890322468
6603,112.16714237430844
6604,94.15203890322468
6607,103.3931449561924
6608,103.3931449561924
6609,94.15203890322468
6611,94.15203890322468
6613,112.16714237430844
6614,94.15203890322468
6616,94.15203890322468
6617,112.16714237430844
6618,94.15203890322468
6619,103.3931449561924
6621,103.3931449561924
6627,103.3931449561924
6629,112.16714237430844
6631,78.0996683548778
6634,94.15203890322468
6636,94.15203890322468
6638,94.15203890322468
6639,112.16714237430844
6641,112.16714237430844
6642,94.15203890322468
6651,116.78144918502537
6654,78.0996683548778
6657,94.15203890322468
6663,94.15203890322468
6665,112.16714237430844
6666,94.15203890322468
6668,94.15203890322468
6669,103.3931449561924
6670,94.15203890322468
6671,94.15203890322468
6673,94.15203890322468
6675,94.15203890322468
6676,78.0996683548778
6677,94.15203890322468
6679,94.15203890322468
6680,112.16714237430844
6681,103.3931449561924
6685,103.3931449561924
6688,94.15203890322468
6689,94.15203890322468
6690,112.16714237430844
6692,112.16714237430844
6693,94.15203890322468
6694,94.15203890322468
6698,116.78144918502537
6699,94.15203890322468
6700,112.16714237430844
6701,94.15203890322468
6702,112.16714237430844
6704,94.15203890322468
6707,112.16714237430844
6712,112.16714237430844
6713,94.15203890322468
6715,94.15203890322468
6721,112.16714237430844
6722,94.15203890322468
6723,112.16714237430844
6724,94.15203890322468
6725,116.78144918502537
6731,112.16714237430844
6735,103.62888026015688
6736,94.15203890322468
6737,103.3931449561924
6738,94.15203890322468
6739,103.3931449561924
6741,103.3931449561924
6743,94.15203890322468
6745,94.15203890322468
6747,112.16714237430844
6749,94.15203890322468
6750,103.3931449561924
6751,116.78144918502537
6752,94.15203890322468
6753,112.16714237430844
6755,112.95410385302853
6756,94.15203890322468
6757,103.3931449561924
6759,112.16714237430844
6761,94.15203890322468
6763,94.15203890322468
6764,116.78144918502537
6765,94.15203890322468
6766,112.16714237430844
6768,112.16714237430844
6771,94.15203890322468
6773,94.15203890322468
6774,94.15203890322468
6778,103.3931449561924
6779,94.15203890322468
6781,94.15203890322468
6784,94.15203890322468
6786,94.15203890322468
6787,112.16714237430844
6790,94.15203890322468
6793,103.3931449561924
6795,112.16714237430844
6798,112.16714237430844
6806,103.3931449561924
6807,94.15203890322468
6810,94.15203890322468
6815,112.16714237430844
6816,94.15203890322468
6817,103.3931449561924
6818,94.15203890322468
6819,103.3931449561924
6820,94.15203890322468
6822,94.15203890322468
6823,116.78144918502537
6824,112.16714237430844
6825,94.15203890322468
6828,78.0996683548778
6829,112.16714237430844
6831,112.16714237430844
6832,94.15203890322468
6833,112.16714237430844
6834,94.15203890322468
6836,94.15203890322468
6837,112.16714237430844
6838,94.15203890322468
6840,103.3931449561924
6843,94.15203890322468
6845,94.15203890322468
6846,94.15203890322468
6847,112.16714237430844
6851,112.16714237430844
6852,94.15203890322468
6853,112.16714237430844
6858,94.15203890322468
6861,112.16714237430844
6863,112.16714237430844
6864,78.0996683548778
6865,94.15203890322468
6866,112.16714237430844
6867,94.15203890322468
6868,103.3931449561924
6869,94.15203890322468
6870,112.16714237430844
6874,112.16714237430844
6875,94.15203890322468
6877,112.16714237430844
6878,94.15203890322468
6880,94.15203890322468
6883,112.16714237430844
6884,94.15203890322468
6886,94.15203890322468
6890,94.15203890322468
6893,112.16714237430844
6894,94.15203890322468
6899,112.16714237430844
6900,94.15203890322468
6904,94.15203890322468
6905,112.16714237430844
6906,94.15203890322468
6910,94.15203890322468
6912,103.3931449561924
6913,112.16714237430844
6920,94.15203890322468
6922,94.15203890322468
6923,112.16714237430844
6926,94.15203890322468
6927,112.16714237430844
6928,94.15203890322468
6931,103.62888026015688
6933,94.15203890322468
6936,94.15203890322468
6937,112.16714237430844
6939,113.64707284457688
6941,94.15203890322468
6942,113.64707284457688
6943,94.15203890322468
6944,103.3931449561924
6945,94.15203890322468
6946,112.16714237430844
6947,116.78144918502537
6949,103.3931449561924
6951,103.3931449561924
6953,113.64707284457688
6954,94.15203890322468
6955,112.16714237430844
6963,103.62888026015688
6964,94.15203890322468
6966,94.15203890322468
6968,94.15203890322468
6970,103.3931449561924
6972,113.64707284457688
6976,112.16714237430844
6978,112.16714237430844
6981,103.3931449561924
6985,103.3931449561924
6986,94.15203890322468
6987,112.16714237430844
6989,112.16714237430844
6991,116.78144918502537
6993,113.64707284457688
6994,94.15203890322468
6995,112.16714237430844
6996,94.15203890322468
6997,112.16714237430844
6998,78.0996683548778
7001,103.62888026015688
7003,113.64707284457688
7006,94.15203890322468
7008,94.15203890322468
7010,94.15203890322468
7011,94.15203890322468
7012,113.64707284457688
7013,94.15203890322468
7014,112.16714237430844
7017,103.3931449561924
7018,94.15203890322468
7019,94.15203890322468
7023,94.15203890322468
7024,103.3931449561924
7025,94.15203890322468
7026,112.16714237430844
7027,94.15203890322468
7028,113.64707284457688
7030,112.16714237430844
7031,94.15203890322468
7033,112.16714237430844
7036,94.15203890322468
7037,94.15203890322468
7039,94.15203890322468
7044,94.15203890322468
7045,112.16714237430844
7046,94.15203890322468
7049,103.3931449561924
7050,94.15203890322468
7051,103.3931449561924
7054,103.62888026015688
7055,94.15203890322468
7057,94.15203890322468
7060,112.16714237430844
7061,94.15203890322468
7063,94.15203890322468
7064,112.16714237430844
7067,94.15203890322468
7071,94.15203890322468
7074,103.3931449561924
7075,94.15203890322468
7078,112.16714237430844
7079,94.15203890322468
7080,112.16714237430844
7081,94.15203890322468
7082,112.16714237430844
7083,94.15203890322468
7085,112.16714237430844
7092,103.3931449561924
7094,94.15203890322468
7100,94.15203890322468
7101,112.16714237430844
7102,112.16714237430844
7104,112.16714237430844
7105,94.15203890322468
7106,94.15203890322468
7107,103.3931449561924
7108,78.0996683548778
7109,94.15203890322468
7110,112.16714237430844
7112,94.15203890322468
7113,103.3931449561924
7114,94.15203890322468
7116,112.16714237430844
7117,94.15203890322468
7118,103.3931449561924
7120,94.15203890322468
7121,103.3931449561924
7123,103.3931449561924
7124,94.15203890322468
7127,110.50761666666666
7131,103.3931449561924
7132,94.15203890322468
7133,94.15203890322468
7134,112.16714237430844
7135,94.15203890322468
7136,112.16714237430844
7137,94.15203890322468
7141,94.15203890322468
7144,103.3931449561924
7147,112.16714237430844
7148,94.15203890322468
7150,94.15203890322468
7151,94.15203890322468
7152,103.3931449561924
7154,94.15203890322468
7156,94.15203890322468
7157,103.3931449561924
7159,116.78144918502537
7161,94.15203890322468
7163,94.15203890322468
7164,103.3931449561924
7167,78.0996683548778
7169,103.3931449561924
7170,94.15203890322468
7173,94.15203890322468
7174,103.3931449561924
7177,112.16714237430844
7178,103.3931449561924
7179,94.15203890322468
7180,78.0996683548778
7181,112.16714237430844
7182,94.15203890322468
7184,94.15203890322468
7185,112.16714237430844
7186,94.15203890322468
7187,116.78144918502537
7188,94.15203890322468
7189,112.16714237430844
7191,103.3931449561924
7193,103.62888026015688
7197,94.15203890322468
7199,94.15203890322468
7200,112.16714237430844
7201,94.15203890322468
7204,94.15203890322468
7207,112.16714237430844
7209,112.16714237430844
7210,94.15203890322468
7211,103.3931449561924
7213,94.15203890322468
7214,112.16714237430844
7216,112.16714237430844
7217,94.15203890322468
7220,112.16714237430844
7224,112.16714237430844
7225,94.15203890322468
7226,112.16714237430844
7227,94.15203890322468
7234,112.16714237430844
7236,103.62888026015688
7239,103.3931449561924
7240,94.15203890322468
7242,113.64707284457688
7244,112.16714237430844
7245,94.15203890322468
7247,112.16714237430844
7248,94.15203890322468
7249,116.78144918502537
7250,112.16714237430844
7251,94.15203890322468
7252,112.16714237430844
7253,78.0996683548778
7256,94.15203890322468
7260,94.15203890322468
7261,112.16714237430844
7264,94.15203890322468
7269,112.16714237430844
7270,94.15203890322468
7273,112.16714237430844
7279,94.15203890322468
7281,112.16714237430844
7284,94.15203890322468
7285,112.16714237430844
7286,116.78144918502537
7287,94.15203890322468
7289,94.15203890322468
7292,94.15203890322468
7293,112.16714237430844
7296,94.15203890322468
7297,112.16714237430844
7298,94.15203890322468
7299,112.16714237430844
7301,103.3931449561924
7304,112.16714237430844
7306,114.3365642023994
7308,94.15203890322468
7309,103.3931449561924
7312,94.15203890322468
7313,78.0996683548778
7314,94.15203890322468
7316,94.15203890322468
7319,112.95410385302853
7321,94.15203890322468
7323,94.15203890322468
7324,103.3931449561924
7325,94.15203890322468
7328,103.3931449561924
7330,78.0996683548778
7334,94.15203890322468
7337,112.16714237430844
7338,94.15203890322468
7339,94.15203890322468
7341,94.15203890322468
7342,112.16714237430844
7344,112.16714237430844
7345,112.16714237430844
7347,103.62888026015688
7349,112.16714237430844
7350,94.15203890322468
7353,112.16714237430844
7355,112.16714237430844
7356,94.15203890322468
7357,112.16714237430844
7358,94.15203890322468
7360,94.15203890322468
7363,103.3931449561924
7364,94.15203890322468
7366,94.15203890322468
7368,94.15203890322468
7369,112.16714237430844
7370,94.15203890322468
7373,94.15203890322468
7374,112.16714237430844
7375,94.15203890322468
7377,94.15203890322468
7379,94.15203890322468
7380,116.78144918502537
7382,112.16714237430844
7383,94.15203890322468
7385,94.15203890322468
7386,103.3931449561924
7391,94.15203890322468
7394,111.12371406487725
7396,112.16714237430844
7397,94.15203890322468
7399,94.15203890322468
7400,103.3931449561924
7403,78.0996683548778
7405,112.16714237430844
7408,112.16714237430844
7414,112.16714237430844
7416,103.3931449561924
7417,94.15203890322468
7419,94.15203890322468
7420,111.12371406487725
7421,94.15203890322468
7422,94.15203890322468
7423,103.3931449561924
7425,78.0996683548778
7430,94.15203890322468
7432,94.15203890322468
7433,94.15203890322468
7434,112.16714237430844
7436,103.62888026015688
7437,94.15203890322468
7438,103.3931449561924
7440,103.3931449561924
7441,94.15203890322468
7442,112.16714237430844
7445,112.16714237430844
7446,103.3931449561924
7448,112.16714237430844
7450,103.3931449561924
7451,94.15203890322468
7454,112.16714237430844
7455,94.15203890322468
7457,112.16714237430844
7459,103.3931449561924
7462,94.15203890322468
7464,94.15203890322468
7465,112.16714237430844
7466,94.15203890322468
7467,112.16714237430844
7469,112.16714237430844
7472,94.15203890322468
7473,112.16714237430844
7479,94.15203890322468
7480,103.3931449561924
7484,112.16714237430844
7491,94.15203890322468
7494,103.3931449561924
7495,94.15203890322468
7501,94.15203890322468
7503,94.15203890322468
7504,103.3931449561924
7505,94.15203890322468
7508,112.16714237430844
7509,94.15203890322468
7510,78.0996683548778
7511,112.16714237430844
7515,94.15203890322468
7516,103.3931449561924
7517,94.15203890322468
7518,103.3931449561924
7519,94.15203890322468
7521,94.15203890322468
7522,103.3931449561924
7524,103.3931449561924
7526,103.3931449561924
7527,94.15203890322468
7528,103.3931449561924
7529,94.15203890322468
7534,112.16714237430844
7537,112.16714237430844
7538,94.15203890322468
7540,94.15203890322468
7541,112.16714237430844
7545,112.16714237430844
7551,112.16714237430844
7553,94.15203890322468
7554,103.3931449561924
7555,94.15203890322468
7561,112.16714237430844
7562,94.15203890322468
7564,94.15203890322468
7565,103.3931449561924
7566,94.15203890322468
7567,113.64707284457688
7569,103.3931449561924
7570,94.15203890322468
7571,116.78144918502537
7572,94.15203890322468
7574,103.3931449561924
7578,112.16714237430844
7579,94.15203890322468
7586,94.15203890322468
7587,78.0996683548778
7590,94.15203890322468
7593,112.16714237430844
7594,94.15203890322468
7595,94.15203890322468
7600,94.15203890322468
7601,78.0996683548778
7602,94.15203890322468
7603,112.16714237430844
7604,94.15203890322468
7606,94.15203890322468
7608,112.16714237430844
7613,78.0996683548778
7615,112.16714237430844
7616,103.62888026015688
7617,112.95410385302853
7618,94.15203890322468
7619,103.3931449561924
7622,94.15203890322468
7623,103.3931449561924
7624,94.15203890322468
7625,103.3931449561924
7626,94.15203890322468
7627,103.3931449561924
7628,78.0996683548778
7631,103.3931449561924
7632,103.3931449561924
7633,94.15203890322468
7634,114.3365642023994
7635,94.15203890322468
7636,112.16714237430844
7637,112.16714237430844
7639,94.15203890322468
7640,78.0996683548778
7644,112.16714237430844
7645,94.15203890322468
7648,103.3931449561924
7649,94.15203890322468
7650,112.16714237430844
7652,112.16714237430844
7653,94.15203890322468
7655,94.15203890322468
7659,112.16714237430844
7662,94.15203890322468
7664,94.15203890322468
7666,94.15203890322468
7668,94.15203890322468
7669,113.64707284457688
7670,94.15203890322468
7672,94.15203890322468
7673,112.16714237430844
7678,94.15203890322468
7679,78.0996683548778
7680,103.3931449561924
7683,94.15203890322468
7685,116.78144918502537
7688,94.15203890322468
7690,103.62888026015688
7692,94.15203890322468
7693,94.15203890322468
7695,112.16714237430844
7696,94.15203890322468
7698,94.15203890322468
7699,112.16714237430844
7702,94.15203890322468
7703,112.16714237430844
7704,94.15203890322468
7707,112.16714237430844
7713,78.0996683548778
7715,103.3931449561924
7717,112.16714237430844
7718,94.15203890322468
7719,103.3931449561924
7721,113.64707284457688
7722,94.15203890322468
7725,103.3931449561924
7727,103.3931449561924
7730,78.0996683548778
7733,94.15203890322468
7735,103.3931449561924
7740,112.16714237430844
7741,112.16714237430844
7742,94.15203890322468
7744,112.16714237430844
7747,94.15203890322468
7750,78.0996683548778
7752,112.16714237430844
7754,112.16714237430844
7756,103.3931449561924
7757,94.15203890322468
7758,103.3931449561924
7760,103.3931449561924
7761,94.15203890322468
7763,112.16714237430844
7765,94.15203890322468
7767,112.16714237430844
7768,94.15203890322468
7771,94.15203890322468
7773,94.15203890322468
7774,112.16714237430844
7776,103.3931449561924
7779,94.15203890322468
7783,94.15203890322468
7786,103.3931449561924
7787,94.15203890322468
7789,94.15203890322468
7791,94.15203890322468
7793,94.15203890322468
7794,112.16714237430844
7795,94.15203890322468
7799,78.0996683548778
7800,112.16714237430844
7802,94.15203890322468
7805,112.16714237430844
7807,103.3931449561924
7808,94.15203890322468
7811,103.3931449561924
7817,103.62888026015688
7818,103.3931449561924
7819,94.15203890322468
7822,94.15203890322468
7823,112.16714237430844
7825,112.16714237430844
7828,94.15203890322468
7832,94.15203890322468
7833,78.0996683548778
7834,112.16714237430844
7835,94.15203890322468
7837,94.15203890322468
7840,94.15203890322468
7842,94.15203890322468
7843,112.16714237430844
7844,94.15203890322468
7846,94.15203890322468
7850,94.15203890322468
7853,112.16714237430844
7855,112.16714237430844
7858,94.15203890322468
7863,112.16714237430844
7865,112.16714237430844
7866,94.15203890322468
7868,94.15203890322468
7869,112.16714237430844
7871,78.0996683548778
7872,103.3931449561924
7874,103.3931449561924
7877,112.16714237430844
7878,94.15203890322468
7879,112.16714237430844
7881,94.15203890322468
7883,94.15203890322468
7885,103.3931449561924
7886,94.15203890322468
7889,94.15203890322468
7890,103.3931449561924
7891,94.15203890322468
7893,94.15203890322468
7894,103.3931449561924
7896,112.16714237430844
7898,103.3931449561924
7901,94.15203890322468
7902,103.62888026015688
7904,112.16714237430844
7905,94.15203890322468
7906,114.3365642023994
7909,94.15203890322468
7910,103.3931449561924
7913,94.15203890322468
7918,112.16714237430844
7919,94.15203890322468
7923,94.15203890322468
7925,94.15203890322468
7927,94.15203890322468
7930,94.15203890322468
7932,94.15203890322468
7933,94.15203890322468
7935,94.15203890322468
7939,103.3931449561924
7942,94.15203890322468
7943,113.64707284457688
7945,103.3931449561924
7946,94.15203890322468
7948,94.15203890322468
7949,112.16714237430844
7950,94.15203890322468
7951,112.16714237430844
7955,103.3931449561924
7959,94.15203890322468
7960,112.16714237430844
7961,94.15203890322468
7962,103.3931449561924
7964,103.3931449561924
7965,94.15203890322468
7966,112.16714237430844
7967,103.3931449561924
7968,94.15203890322468
7971,103.3931449561924
7974,94.15203890322468
7976,111.12371406487725
7978,112.16714237430844
7982,112.16714237430844
7983,94.15203890322468
7984,103.3931449561924
7986,94.15203890322468
7989,112.16714237430844
7991,103.62888026015688
7992,112.16714237430844
7993,94.15203890322468
7994,112.16714237430844
7995,94.15203890322468
7997,94.15203890322468
7998,103.3931449561924
7999,103.62888026015688
8002,94.15203890322468
8007,94.15203890322468
8009,94.15203890322468
8011,94.15203890322468
8013,94.15203890322468
8015,103.3931449561924
8017,112.16714237430844
8019,116.78144918502537
8023,94.15203890322468
8024,112.16714237430844
8026,112.16714237430844
8027,94.15203890322468
8029,94.15203890322468
8030,112.16714237430844
8031,94.15203890322468
8033,94.15203890322468
8035,94.15203890322468
8036,103.3931449561924
8039,103.3931449561924
8042,94.15203890322468
8044,94.15203890322468
8046,78.0996683548778
8048,112.16714237430844
8049,94.15203890322468
8050,103.3931449561924
8053,94.15203890322468
8054,94.15203890322468
8059,94.15203890322468
8061,94.15203890322468
8062,112.16714237430844
8064,112.16714237430844
8066,103.3931449561924
8067,94.15203890322468
8068,94.15203890322468
8070,94.15203890322468
8071,112.16714237430844
8072,94.15203890322468
8076,94.15203890322468
8080,94.15203890322468
8081,112.16714237430844
8084,94.15203890322468
8087,112.16714237430844
8089,94.15203890322468
8090,116.78144918502537
8091,103.3931449561924
8094,112.16714237430844
8100,94.15203890322468
8101,94.15203890322468
8110,94.15203890322468
8111,103.62888026015688
8112,94.15203890322468
8115,113.64707284457688
8116,94.15203890322468
8118,112.16714237430844
8121,116.78144918502537
8125,112.16714237430844
8127,112.16714237430844
8128,94.15203890322468
8129,103.62888026015688
8131,94.15203890322468
8138,94.15203890322468
8139,103.3931449561924
8140,94.15203890322468
8141,94.15203890322468
8142,112.16714237430844
8143,112.16714237430844
8145,112.16714237430844
8146,94.15203890322468
8148,112.16714237430844
8153,112.16714237430844
8154,94.15203890322468
8155,112.16714237430844
8161,94.15203890322468
8162,112.16714237430844
8163,94.15203890322468
8166,112.16714237430844
8168,112.16714237430844
8170,94.15203890322468
8172,103.62888026015688
8173,94.15203890322468
8176,103.3931449561924
8179,94.15203890322468
8181,94.15203890322468
8182,116.78144918502537
8184,112.16714237430844
8190,103.3931449561924
8191,94.15203890322468
8194,112.16714237430844
8196,113.64707284457688
8198,112.16714237430844
8199,112.16714237430844
8201,112.16714237430844
8202,94.15203890322468
8207,94.15203890322468
8208,103.62888026015688
8211,112.16714237430844
8214,103.62888026015688
8217,94.15203890322468
8218,112.16714237430844
8222,94.15203890322468
8229,103.3931449561924
8231,94.15203890322468
8233,94.15203890322468
8236,94.15203890322468
8238,112.16714237430844
8240,103.3931449561924
8243,103.3931449561924
8246,112.16714237430844
8250,94.15203890322468
8254,94.15203890322468
8256,78.0996683548778
8257,112.16714237430844
8258,94.15203890322468
8260,94.15203890322468
8261,112.16714237430844
8263,113.64707284457688
8264,94.15203890322468
8267,112.16714237430844
8268,94.15203890322468
8271,94.15203890322468
8272,103.62888026015688
8275,94.15203890322468
8276,94.15203890322468
8277,103.3931449561924
8278,116.78144918502537
8279,94.15203890322468
8280,112.16714237430844
8281,94.15203890322468
8282,112.16714237430844
8287,112.16714237430844
8288,94.15203890322468
8289,112.16714237430844
8294,94.15203890322468
8296,94.15203890322468
8299,112.16714237430844
8302,103.3931449561924
8308,112.16714237430844
8314,103.3931449561924
8315,94.15203890322468
8316,113.64707284457688
8317,94.15203890322468
8319,112.16714237430844
8320,94.15203890322468
8321,116.78144918502537
8323,94.15203890322468
8325,94.15203890322468
8326,112.16714237430844
8328,103.62888026015688
8330,112.16714237430844
8331,94.15203890322468
8332,112.16714237430844
8334,94.15203890322468
8338,94.15203890322468
8339,94.15203890322468
8341,94.15203890322468
8345,112.16714237430844
8346,94.15203890322468
8347,103.3931449561924
8349,94.15203890322468
8351,94.15203890322468
8352,112.16714237430844
8353,103.62888026015688
8355,112.16714237430844
8358,103.62888026015688
8359,112.16714237430844
8360,94.15203890322468
8361,112.16714237430844
8363,103.3931449561924
8364,94.15203890322468
8365,94.15203890322468
8366,103.3931449561924
8370,112.16714237430844
8372,94.15203890322468
8376,94.15203890322468
8377,112.16714237430844
8379,112.16714237430844
8380,94.15203890322468
8381,112.16714237430844
8386,94.15203890322468
8388,103.3931449561924
8389,94.15203890322468
8391,112.16714237430844
8394,94.15203890322468
8396,103.3931449561924
8398,103.3931449561924
8400,112.16714237430844
8401,94.15203890322468
8404,94.15203890322468
8407,94.15203890322468
8408,112.16714237430844
8409,103.62888026015688
8410,103.3931449561924
8411,94.15203890322468
8413,94.15203890322468
8414,112.16714237430844
8416,94.15203890322468
